DCS_FinalProject/output1.vcd
$date    May 17, 2011  13:07:29 $end
$timescale    1 ps $end
$scope module circuit1 $end
$var wire      1 !    G5 $end
$var wire      1 "    G4 $end
$var wire      1 #    G3 $end
$var wire      1 $    G2 $end
$var wire      1 %    G1 $end
$var wire      1 &    G16 $end
$var wire      1 '    G17 $end
$var reg       1 .    CLK  $end
$upscope $end
$enddefinitions $end
$dumpvars
x!
x"
x#
x$
x%
x&
x'
1.
$end
#500
0.
1"
1#
0$
0%
#1000
1.
#1500
0.
1!
0"
0#
1$
1%
#2000
1.
#2500
0'
0.
0!
1#
#3000
1.
#3500
1&
0.
1"
0#
#4000
1.
#4500
0.
1'
1#
#5000
1.
#5500
0.
0'
#6000
1.
#6500
1'
0.
#7000
1.
#7500
0'
0.
