DCS_FinalProject/output_input5.ckt_pattern5.vcd.vcd
$date Jun 22 2011, 22:23:06 $end
$timescale 1 ps $end
$scope module LAB5 $end
$var wire	1 !G0	G0 $end
$var wire	1 !G1	G1 $end
$var wire	1 !G2	G2 $end
$var wire	1 !G3	G3 $end
$var wire	1 !G4	G4 $end
$var wire	1 !G5	G5 $end
$var wire	1 !G6	G6 $end
$var wire	1 !G7	G7 $end
$var wire	1 !G8	G8 $end
$var wire	1 !G9	G9 $end
$var wire	1 !G10	G10 $end
$var wire	1 !G11	G11 $end
$var wire	1 !G12	G12 $end
$var wire	1 !G13	G13 $end
$var wire	1 !G14	G14 $end
$var wire	1 !G15	G15 $end
$var wire	1 !G16	G16 $end
$var wire	1 !G22	G22 $end
$var wire	1 !G23	G23 $end
$var wire	1 !G24	G24 $end
$var wire	1 !G25	G25 $end
$var wire	1 !G26	G26 $end
$var wire	1 !G27	G27 $end
$var wire	1 !G28	G28 $end
$var wire	1 !G29	G29 $end
$var wire	1 !G30	G30 $end
$var wire	1 !G31	G31 $end
$var wire	1 !G32	G32 $end
$var wire	1 !G33	G33 $end
$var wire	1 !G34	G34 $end
$var wire	1 !G35	G35 $end
$var wire	1 !G36	G36 $end
$var wire	1 !G37	G37 $end
$var wire	1 !G38	G38 $end
$var wire	1 !G39	G39 $end
$var wire	1 !G40	G40 $end
$var wire	1 !G41	G41 $end
$var wire	1 !G42	G42 $end
$var wire	1 !G43	G43 $end
$var wire	1 !G44	G44 $end
$var wire	1 !G45	G45 $end
$var wire	1 !G46	G46 $end
$var wire	1 !G47	G47 $end
$var wire	1 !G48	G48 $end
$var wire	1 !G49	G49 $end
$var wire	1 !G50	G50 $end
$var wire	1 !G51	G51 $end
$var wire	1 !G52	G52 $end
$var wire	1 !G53	G53 $end
$var wire	1 !G54	G54 $end
$var wire	1 !G55	G55 $end
$var wire	1 !G56	G56 $end
$var wire	1 !G57	G57 $end
$var wire	1 !G58	G58 $end
$var wire	1 !G59	G59 $end
$var wire	1 !G60	G60 $end
$var wire	1 !G61	G61 $end
$var wire	1 !G62	G62 $end
$var wire	1 !G63	G63 $end
$var wire	1 !G64	G64 $end
$var wire	1 !G65	G65 $end
$var wire	1 !G66	G66 $end
$var wire	1 !G67	G67 $end
$var wire	1 !G68	G68 $end
$var wire	1 !G69	G69 $end
$var wire	1 !G70	G70 $end
$var wire	1 !G71	G71 $end
$var wire	1 !G72	G72 $end
$var wire	1 !G73	G73 $end
$var wire	1 !G74	G74 $end
$var wire	1 !G75	G75 $end
$var wire	1 !G76	G76 $end
$var wire	1 !G77	G77 $end
$var wire	1 !G78	G78 $end
$var wire	1 !G79	G79 $end
$var wire	1 !G80	G80 $end
$var wire	1 !G81	G81 $end
$var wire	1 !G82	G82 $end
$var wire	1 !G83	G83 $end
$var wire	1 !G84	G84 $end
$var wire	1 !G85	G85 $end
$var wire	1 !G86	G86 $end
$var wire	1 !G87	G87 $end
$var wire	1 !G88	G88 $end
$var wire	1 !G89	G89 $end
$var wire	1 !G90	G90 $end
$var wire	1 !G91	G91 $end
$var wire	1 !G92	G92 $end
$var wire	1 !G93	G93 $end
$var wire	1 !G94	G94 $end
$var wire	1 !G95	G95 $end
$var wire	1 !G726	G726 $end
$var wire	1 !G729	G729 $end
$var wire	1 !G702	G702 $end
$var wire	1 !G727	G727 $end
$var wire	1 !G701BF	G701BF $end
$var wire	1 !G332BF	G332BF $end
$var wire	1 !G328BF	G328BF $end
$var wire	1 !G109	G109 $end
$var wire	1 !G113	G113 $end
$var wire	1 !G118	G118 $end
$var wire	1 !G125	G125 $end
$var wire	1 !G129	G129 $end
$var wire	1 !G140	G140 $end
$var wire	1 !G144	G144 $end
$var wire	1 !G149	G149 $end
$var wire	1 !G154	G154 $end
$var wire	1 !G159	G159 $end
$var wire	1 !G166	G166 $end
$var wire	1 !G175	G175 $end
$var wire	1 !G189	G189 $end
$var wire	1 !G193	G193 $end
$var wire	1 !G198	G198 $end
$var wire	1 !G208	G208 $end
$var wire	1 !G214	G214 $end
$var wire	1 !G218	G218 $end
$var wire	1 !G237	G237 $end
$var wire	1 !G242	G242 $end
$var wire	1 !G247	G247 $end
$var wire	1 !G252	G252 $end
$var wire	1 !G260	G260 $end
$var wire	1 !G303	G303 $end
$var wire	1 !G309	G309 $end
$var wire	1 !G315	G315 $end
$var wire	1 !G321	G321 $end
$var wire	1 !G360	G360 $end
$var wire	1 !G365	G365 $end
$var wire	1 !G373	G373 $end
$var wire	1 !G379	G379 $end
$var wire	1 !G384	G384 $end
$var wire	1 !G392	G392 $end
$var wire	1 !G397	G397 $end
$var wire	1 !G405	G405 $end
$var wire	1 !G408	G408 $end
$var wire	1 !G416	G416 $end
$var wire	1 !G424	G424 $end
$var wire	1 !G427	G427 $end
$var wire	1 !G438	G438 $end
$var wire	1 !G441	G441 $end
$var wire	1 !G447	G447 $end
$var wire	1 !G451	G451 $end
$var wire	1 !G459	G459 $end
$var wire	1 !G464	G464 $end
$var wire	1 !G469	G469 $end
$var wire	1 !G477	G477 $end
$var wire	1 !G494	G494 $end
$var wire	1 !G498	G498 $end
$var wire	1 !G503	G503 $end
$var wire	1 !G526	G526 $end
$var wire	1 !G531	G531 $end
$var wire	1 !G536	G536 $end
$var wire	1 !G541	G541 $end
$var wire	1 !G548	G548 $end
$var wire	1 !G565	G565 $end
$var wire	1 !G569	G569 $end
$var wire	1 !G573	G573 $end
$var wire	1 !G577	G577 $end
$var wire	1 !G590	G590 $end
$var wire	1 !G608	G608 $end
$var wire	1 !G613	G613 $end
$var wire	1 !G657	G657 $end
$var wire	1 !G663	G663 $end
$var wire	1 !G669	G669 $end
$var wire	1 !G675	G675 $end
$var wire	1 !G682	G682 $end
$var wire	1 !G687	G687 $end
$var wire	1 !G693	G693 $end
$var wire	1 !G705	G705 $end
$var wire	1 !G707	G707 $end
$var wire	1 !G713	G713 $end
$var reg	1 CLK	CLK $end
$upscope $end
$enddefinitions $end
$dumpvars
1CLK
x!G0
x!G1
x!G2
x!G3
x!G4
x!G5
x!G6
x!G7
x!G8
x!G9
x!G10
x!G11
x!G12
x!G13
x!G14
x!G15
x!G16
x!G22
x!G23
x!G24
x!G25
x!G26
x!G27
x!G28
x!G29
x!G30
x!G31
x!G32
x!G33
x!G34
x!G35
x!G36
x!G37
x!G38
x!G39
x!G40
x!G41
x!G42
x!G43
x!G44
x!G45
x!G46
x!G47
x!G48
x!G49
x!G50
x!G51
x!G52
x!G53
x!G54
x!G55
x!G56
x!G57
x!G58
x!G59
x!G60
x!G61
x!G62
x!G63
x!G64
x!G65
x!G66
x!G67
x!G68
x!G69
x!G70
x!G71
x!G72
x!G73
x!G74
x!G75
x!G76
x!G77
x!G78
x!G79
x!G80
x!G81
x!G82
x!G83
x!G84
x!G85
x!G86
x!G87
x!G88
x!G89
x!G90
x!G91
x!G92
x!G93
x!G94
x!G95
x!G726
x!G729
x!G702
x!G727
x!G701BF
x!G332BF
x!G328BF
x!G109
x!G113
x!G118
x!G125
x!G129
x!G140
x!G144
x!G149
x!G154
x!G159
x!G166
x!G175
x!G189
x!G193
x!G198
x!G208
x!G214
x!G218
x!G237
x!G242
x!G247
x!G252
x!G260
x!G303
x!G309
x!G315
x!G321
x!G360
x!G365
x!G373
x!G379
x!G384
x!G392
x!G397
x!G405
x!G408
x!G416
x!G424
x!G427
x!G438
x!G441
x!G447
x!G451
x!G459
x!G464
x!G469
x!G477
x!G494
x!G498
x!G503
x!G526
x!G531
x!G536
x!G541
x!G548
x!G565
x!G569
x!G573
x!G577
x!G590
x!G608
x!G613
x!G657
x!G663
x!G669
x!G675
x!G682
x!G687
x!G693
x!G705
x!G707
x!G713
$end
#500
0CLK
1!G0
0!G1
1!G2
1!G3
1!G4
0!G5
0!G6
1!G7
0!G8
1!G9
0!G10
1!G11
0!G12
1!G13
1!G14
1!G15
1!G16
1!G22
1!G23
0!G24
1!G25
0!G26
0!G27
0!G28
1!G29
0!G30
0!G31
0!G32
0!G33
1!G34
0!G35
1!G36
1!G37
1!G38
0!G39
1!G40
1!G41
0!G42
1!G43
0!G44
1!G45
1!G46
1!G47
0!G48
1!G49
0!G50
0!G51
1!G52
1!G53
0!G54
1!G55
1!G56
0!G57
0!G58
1!G59
1!G60
0!G61
0!G62
0!G63
0!G64
0!G65
0!G66
1!G67
1!G68
1!G69
0!G70
1!G71
0!G72
1!G73
1!G74
1!G75
1!G76
0!G77
0!G78
1!G79
1!G80
1!G81
0!G82
1!G83
1!G84
0!G85
1!G86
0!G87
0!G88
0!G89
1!G90
1!G91
0!G92
0!G93
1!G94
1!G95
x!G726
x!G729
x!G702
x!G727
x!G701BF
x!G332BF
x!G328BF
x!G109
x!G113
x!G118
x!G125
x!G129
x!G140
x!G144
x!G149
x!G154
x!G159
x!G166
x!G175
x!G189
x!G193
x!G198
x!G208
x!G214
x!G218
x!G237
x!G242
x!G247
x!G252
x!G260
x!G303
x!G309
x!G315
x!G321
x!G360
x!G365
x!G373
x!G379
x!G384
x!G392
x!G397
x!G405
x!G408
x!G416
x!G424
x!G427
x!G438
x!G441
x!G447
x!G451
x!G459
x!G464
x!G469
x!G477
x!G494
x!G498
x!G503
x!G526
x!G531
x!G536
x!G541
x!G548
x!G565
x!G569
x!G573
x!G577
x!G590
x!G608
x!G613
x!G657
x!G663
x!G669
x!G675
x!G682
x!G687
x!G693
x!G705
x!G707
x!G713
#1000
1CLK
#1500
0CLK
0!G0
0!G1
0!G2
0!G3
0!G4
0!G5
0!G6
0!G7
0!G8
0!G9
0!G10
0!G11
0!G12
0!G13
0!G14
0!G15
0!G16
0!G22
0!G23
0!G24
0!G25
0!G26
0!G27
0!G28
0!G29
0!G30
0!G31
0!G32
0!G33
0!G34
0!G35
0!G36
0!G37
0!G38
0!G39
0!G40
0!G41
0!G42
0!G43
0!G44
0!G45
0!G46
0!G47
0!G48
0!G49
0!G50
0!G51
0!G52
0!G53
0!G54
0!G55
0!G56
0!G57
0!G58
0!G59
0!G60
0!G61
0!G62
0!G63
0!G64
0!G65
0!G66
0!G67
0!G68
0!G69
0!G70
0!G71
0!G72
0!G73
0!G74
0!G75
0!G76
0!G77
0!G78
0!G79
0!G80
0!G81
0!G82
0!G83
0!G84
0!G85
0!G86
0!G87
0!G88
0!G89
0!G90
0!G91
0!G92
0!G93
0!G94
0!G95
x!G726
x!G729
x!G702
x!G727
x!G701BF
x!G332BF
x!G328BF
x!G109
x!G113
x!G118
x!G125
x!G129
x!G140
x!G144
x!G149
x!G154
x!G159
x!G166
x!G175
x!G189
x!G193
x!G198
x!G208
x!G214
x!G218
x!G237
x!G242
x!G247
x!G252
x!G260
x!G303
x!G309
x!G315
x!G321
x!G360
x!G365
x!G373
x!G379
x!G384
x!G392
x!G397
x!G405
x!G408
x!G416
x!G424
x!G427
x!G438
x!G441
x!G447
x!G451
x!G459
x!G464
x!G469
x!G477
x!G494
x!G498
x!G503
x!G526
x!G531
x!G536
x!G541
x!G548
x!G565
x!G569
x!G573
x!G577
x!G590
x!G608
x!G613
x!G657
x!G663
x!G669
x!G675
x!G682
x!G687
x!G693
x!G705
x!G707
x!G713
#2000
1CLK
#2500
0CLK
0!G0
0!G1
0!G2
0!G3
0!G4
0!G5
0!G6
0!G7
0!G8
0!G9
0!G10
0!G11
0!G12
0!G13
0!G14
0!G15
0!G16
0!G22
0!G23
0!G24
0!G25
0!G26
0!G27
0!G28
0!G29
0!G30
0!G31
0!G32
0!G33
0!G34
0!G35
0!G36
0!G37
0!G38
0!G39
0!G40
0!G41
0!G42
0!G43
0!G44
0!G45
0!G46
0!G47
0!G48
0!G49
0!G50
0!G51
0!G52
0!G53
0!G54
0!G55
0!G56
0!G57
0!G58
0!G59
0!G60
0!G61
0!G62
0!G63
0!G64
0!G65
0!G66
0!G67
0!G68
0!G69
0!G70
0!G71
0!G72
0!G73
0!G74
0!G75
0!G76
0!G77
0!G78
0!G79
0!G80
0!G81
0!G82
0!G83
0!G84
0!G85
0!G86
0!G87
0!G88
0!G89
0!G90
0!G91
0!G92
0!G93
0!G94
0!G95
0!G726
1!G729
x!G702
x!G727
x!G701BF
x!G332BF
x!G328BF
x!G109
x!G113
x!G118
x!G125
x!G129
x!G140
x!G144
x!G149
x!G154
x!G159
x!G166
x!G175
x!G189
x!G193
x!G198
x!G208
x!G214
x!G218
x!G237
x!G242
x!G247
x!G252
x!G260
x!G303
x!G309
x!G315
x!G321
x!G360
x!G365
x!G373
x!G379
x!G384
x!G392
x!G397
x!G405
x!G408
x!G416
x!G424
x!G427
x!G438
x!G441
x!G447
x!G451
x!G459
x!G464
x!G469
x!G477
x!G494
x!G498
x!G503
x!G526
x!G531
x!G536
x!G541
x!G548
x!G565
x!G569
x!G573
x!G577
x!G590
x!G608
x!G613
x!G657
x!G663
x!G669
x!G675
x!G682
x!G687
x!G693
x!G705
x!G707
x!G713
#3000
1CLK
#3500
0CLK
0!G0
0!G1
0!G2
0!G3
0!G4
0!G5
0!G6
0!G7
0!G8
0!G9
0!G10
0!G11
0!G12
0!G13
0!G14
0!G15
0!G16
0!G22
0!G23
0!G24
0!G25
0!G26
0!G27
0!G28
0!G29
0!G30
0!G31
0!G32
0!G33
0!G34
0!G35
0!G36
0!G37
0!G38
0!G39
0!G40
0!G41
0!G42
0!G43
0!G44
0!G45
0!G46
0!G47
0!G48
0!G49
0!G50
0!G51
0!G52
0!G53
0!G54
0!G55
0!G56
0!G57
0!G58
0!G59
0!G60
0!G61
0!G62
0!G63
0!G64
0!G65
0!G66
0!G67
0!G68
0!G69
0!G70
0!G71
0!G72
0!G73
0!G74
0!G75
0!G76
0!G77
0!G78
0!G79
0!G80
0!G81
0!G82
0!G83
0!G84
0!G85
0!G86
0!G87
0!G88
0!G89
0!G90
0!G91
0!G92
0!G93
0!G94
0!G95
1!G726
0!G729
x!G702
x!G727
x!G701BF
x!G332BF
x!G328BF
x!G109
x!G113
x!G118
x!G125
x!G129
x!G140
x!G144
x!G149
x!G154
x!G159
x!G166
0!G175
x!G189
x!G193
x!G198
x!G208
x!G214
x!G218
x!G237
x!G242
x!G247
x!G252
x!G260
x!G303
x!G309
x!G315
x!G321
x!G360
x!G365
x!G373
x!G379
x!G384
x!G392
x!G397
x!G405
x!G408
x!G416
x!G424
x!G427
x!G438
x!G441
x!G447
x!G451
x!G459
x!G464
x!G469
x!G477
x!G494
x!G498
x!G503
x!G526
x!G531
x!G536
x!G541
x!G548
x!G565
x!G569
x!G573
x!G577
x!G590
x!G608
x!G613
x!G657
x!G663
x!G669
x!G675
x!G682
x!G687
x!G693
x!G705
x!G707
x!G713
#4000
1CLK
#4500
0CLK
0!G0
0!G1
0!G2
0!G3
0!G4
0!G5
0!G6
0!G7
0!G8
0!G9
0!G10
0!G11
0!G12
0!G13
0!G14
0!G15
0!G16
0!G22
0!G23
0!G24
0!G25
0!G26
0!G27
0!G28
0!G29
0!G30
0!G31
0!G32
0!G33
0!G34
0!G35
0!G36
0!G37
0!G38
0!G39
0!G40
0!G41
0!G42
0!G43
0!G44
0!G45
0!G46
0!G47
0!G48
0!G49
0!G50
0!G51
0!G52
0!G53
0!G54
0!G55
0!G56
0!G57
0!G58
0!G59
0!G60
0!G61
0!G62
0!G63
0!G64
0!G65
0!G66
0!G67
0!G68
0!G69
0!G70
0!G71
0!G72
0!G73
0!G74
0!G75
0!G76
0!G77
0!G78
0!G79
0!G80
0!G81
0!G82
0!G83
0!G84
0!G85
0!G86
0!G87
0!G88
0!G89
0!G90
0!G91
0!G92
0!G93
0!G94
0!G95
0!G726
1!G729
x!G702
x!G727
0!G701BF
x!G332BF
x!G328BF
x!G109
x!G113
x!G118
x!G125
x!G129
x!G140
x!G144
x!G149
x!G154
x!G159
x!G166
0!G175
x!G189
x!G193
x!G198
x!G208
x!G214
x!G218
x!G237
x!G242
x!G247
x!G252
x!G260
x!G303
x!G309
x!G315
x!G321
x!G360
x!G365
x!G373
x!G379
x!G384
x!G392
x!G397
x!G405
x!G408
x!G416
x!G424
x!G427
x!G438
x!G441
x!G447
x!G451
x!G459
x!G464
x!G469
x!G477
x!G494
x!G498
x!G503
x!G526
x!G531
x!G536
x!G541
x!G548
x!G565
x!G569
x!G573
x!G577
x!G590
x!G608
x!G613
x!G657
x!G663
x!G669
x!G675
x!G682
x!G687
x!G693
x!G705
x!G707
x!G713
#5000
1CLK
#5500
0CLK
0!G0
0!G1
0!G2
0!G3
0!G4
0!G5
0!G6
0!G7
0!G8
0!G9
0!G10
0!G11
0!G12
0!G13
0!G14
0!G15
0!G16
0!G22
0!G23
0!G24
0!G25
0!G26
0!G27
0!G28
0!G29
0!G30
0!G31
0!G32
0!G33
0!G34
0!G35
0!G36
0!G37
0!G38
0!G39
0!G40
0!G41
0!G42
0!G43
0!G44
0!G45
0!G46
0!G47
0!G48
0!G49
0!G50
0!G51
0!G52
0!G53
0!G54
0!G55
0!G56
0!G57
0!G58
0!G59
0!G60
0!G61
0!G62
0!G63
0!G64
0!G65
0!G66
0!G67
0!G68
0!G69
0!G70
0!G71
0!G72
0!G73
0!G74
0!G75
0!G76
0!G77
0!G78
0!G79
0!G80
0!G81
0!G82
0!G83
0!G84
0!G85
0!G86
0!G87
0!G88
0!G89
0!G90
0!G91
0!G92
0!G93
0!G94
0!G95
0!G726
0!G729
x!G702
x!G727
1!G701BF
x!G332BF
x!G328BF
x!G109
x!G113
x!G118
x!G125
x!G129
x!G140
x!G144
x!G149
x!G154
x!G159
x!G166
0!G175
x!G189
x!G193
x!G198
x!G208
x!G214
x!G218
x!G237
x!G242
x!G247
x!G252
x!G260
x!G303
x!G309
x!G315
x!G321
x!G360
x!G365
x!G373
x!G379
x!G384
x!G392
x!G397
x!G405
x!G408
x!G416
x!G424
x!G427
x!G438
x!G441
x!G447
x!G451
x!G459
x!G464
x!G469
x!G477
x!G494
x!G498
x!G503
x!G526
x!G531
x!G536
x!G541
x!G548
x!G565
x!G569
x!G573
x!G577
x!G590
x!G608
x!G613
0!G657
x!G663
x!G669
x!G675
x!G682
x!G687
x!G693
x!G705
x!G707
x!G713
#6000
1CLK
#6500
0CLK
0!G0
0!G1
0!G2
0!G3
0!G4
0!G5
0!G6
0!G7
0!G8
0!G9
0!G10
0!G11
0!G12
0!G13
0!G14
0!G15
0!G16
0!G22
0!G23
0!G24
0!G25
0!G26
0!G27
0!G28
0!G29
0!G30
0!G31
0!G32
0!G33
0!G34
0!G35
0!G36
0!G37
0!G38
0!G39
0!G40
0!G41
0!G42
0!G43
0!G44
0!G45
0!G46
0!G47
0!G48
0!G49
0!G50
0!G51
0!G52
0!G53
0!G54
0!G55
0!G56
0!G57
0!G58
0!G59
0!G60
0!G61
0!G62
0!G63
0!G64
0!G65
0!G66
0!G67
0!G68
0!G69
0!G70
0!G71
0!G72
0!G73
0!G74
0!G75
0!G76
0!G77
0!G78
0!G79
0!G80
0!G81
0!G82
0!G83
0!G84
0!G85
0!G86
0!G87
0!G88
0!G89
0!G90
0!G91
0!G92
0!G93
0!G94
0!G95
1!G726
1!G729
x!G702
x!G727
1!G701BF
x!G332BF
x!G328BF
x!G109
x!G113
x!G118
0!G125
x!G129
x!G140
x!G144
0!G149
x!G154
x!G159
x!G166
0!G175
x!G189
x!G193
x!G198
x!G208
x!G214
x!G218
x!G237
0!G242
x!G247
x!G252
x!G260
x!G303
x!G309
x!G315
x!G321
x!G360
0!G365
0!G373
x!G379
0!G384
0!G392
x!G397
0!G405
x!G408
x!G416
x!G424
x!G427
x!G438
x!G441
x!G447
x!G451
x!G459
x!G464
x!G469
x!G477
x!G494
x!G498
x!G503
x!G526
x!G531
x!G536
x!G541
x!G548
x!G565
x!G569
x!G573
1!G577
x!G590
x!G608
x!G613
x!G657
x!G663
x!G669
x!G675
x!G682
x!G687
x!G693
x!G705
x!G707
x!G713
#7000
1CLK
#7500
0CLK
0!G0
0!G1
0!G2
0!G3
0!G4
0!G5
0!G6
0!G7
0!G8
0!G9
0!G10
0!G11
0!G12
0!G13
0!G14
0!G15
0!G16
0!G22
0!G23
0!G24
0!G25
0!G26
0!G27
0!G28
0!G29
0!G30
0!G31
0!G32
0!G33
0!G34
0!G35
0!G36
0!G37
0!G38
0!G39
0!G40
0!G41
0!G42
0!G43
0!G44
0!G45
0!G46
0!G47
0!G48
0!G49
0!G50
0!G51
0!G52
0!G53
0!G54
0!G55
0!G56
0!G57
0!G58
0!G59
0!G60
0!G61
0!G62
0!G63
0!G64
0!G65
0!G66
0!G67
0!G68
0!G69
0!G70
0!G71
0!G72
0!G73
0!G74
0!G75
0!G76
0!G77
0!G78
0!G79
0!G80
0!G81
0!G82
0!G83
0!G84
0!G85
0!G86
0!G87
0!G88
0!G89
0!G90
0!G91
0!G92
0!G93
0!G94
0!G95
1!G726
1!G729
x!G702
x!G727
0!G701BF
x!G332BF
x!G328BF
x!G109
x!G113
x!G118
x!G125
x!G129
x!G140
x!G144
0!G149
0!G154
0!G159
x!G166
x!G175
x!G189
x!G193
x!G198
x!G208
x!G214
x!G218
x!G237
x!G242
x!G247
x!G252
x!G260
x!G303
x!G309
x!G315
x!G321
x!G360
x!G365
0!G373
x!G379
x!G384
x!G392
x!G397
x!G405
0!G408
x!G416
x!G424
x!G427
x!G438
x!G441
x!G447
x!G451
x!G459
x!G464
x!G469
x!G477
1!G494
x!G498
x!G503
x!G526
x!G531
0!G536
0!G541
x!G548
1!G565
x!G569
1!G573
x!G577
x!G590
x!G608
x!G613
x!G657
x!G663
x!G669
x!G675
x!G682
x!G687
x!G693
x!G705
x!G707
0!G713
#8000
1CLK
#8500
0CLK
0!G0
0!G1
0!G2
0!G3
0!G4
0!G5
0!G6
0!G7
0!G8
0!G9
0!G10
0!G11
0!G12
0!G13
0!G14
0!G15
0!G16
0!G22
0!G23
0!G24
0!G25
0!G26
0!G27
0!G28
0!G29
0!G30
0!G31
0!G32
0!G33
0!G34
0!G35
0!G36
0!G37
0!G38
0!G39
0!G40
0!G41
0!G42
0!G43
0!G44
0!G45
0!G46
0!G47
0!G48
0!G49
0!G50
0!G51
0!G52
0!G53
0!G54
0!G55
0!G56
0!G57
0!G58
0!G59
0!G60
0!G61
0!G62
0!G63
0!G64
0!G65
0!G66
0!G67
0!G68
0!G69
0!G70
0!G71
0!G72
0!G73
0!G74
0!G75
0!G76
0!G77
0!G78
0!G79
0!G80
0!G81
0!G82
0!G83
0!G84
0!G85
0!G86
0!G87
0!G88
0!G89
0!G90
0!G91
0!G92
0!G93
0!G94
0!G95
0!G726
1!G729
x!G702
x!G727
0!G701BF
1!G332BF
x!G328BF
x!G109
x!G113
x!G118
x!G125
x!G129
x!G140
x!G144
x!G149
x!G154
x!G159
0!G166
x!G175
x!G189
x!G193
x!G198
x!G208
x!G214
x!G218
x!G237
x!G242
0!G247
x!G252
x!G260
x!G303
x!G309
x!G315
x!G321
x!G360
x!G365
x!G373
x!G379
x!G384
0!G392
x!G397
x!G405
x!G408
x!G416
x!G424
0!G427
x!G438
x!G441
x!G447
x!G451
x!G459
x!G464
0!G469
0!G477
x!G494
1!G498
1!G503
x!G526
0!G531
0!G536
x!G541
x!G548
x!G565
x!G569
x!G573
x!G577
x!G590
x!G608
x!G613
x!G657
x!G663
x!G669
x!G675
x!G682
x!G687
x!G693
x!G705
x!G707
x!G713
#9000
1CLK
#9500
0CLK
0!G0
0!G1
0!G2
0!G3
0!G4
0!G5
0!G6
0!G7
0!G8
0!G9
0!G10
0!G11
0!G12
0!G13
0!G14
0!G15
0!G16
0!G22
0!G23
0!G24
0!G25
0!G26
0!G27
0!G28
0!G29
0!G30
0!G31
0!G32
0!G33
0!G34
0!G35
0!G36
0!G37
0!G38
0!G39
0!G40
0!G41
0!G42
0!G43
0!G44
0!G45
0!G46
0!G47
0!G48
0!G49
0!G50
0!G51
0!G52
0!G53
0!G54
0!G55
0!G56
0!G57
0!G58
0!G59
0!G60
0!G61
0!G62
0!G63
0!G64
0!G65
0!G66
0!G67
0!G68
0!G69
0!G70
0!G71
0!G72
0!G73
0!G74
0!G75
0!G76
0!G77
0!G78
0!G79
0!G80
0!G81
0!G82
0!G83
0!G84
0!G85
0!G86
0!G87
0!G88
0!G89
0!G90
0!G91
0!G92
0!G93
0!G94
0!G95
1!G726
1!G729
x!G702
x!G727
0!G701BF
1!G332BF
x!G328BF
x!G109
x!G113
x!G118
x!G125
0!G129
x!G140
0!G144
x!G149
x!G154
x!G159
x!G166
x!G175
x!G189
x!G193
0!G198
x!G208
x!G214
x!G218
0!G237
x!G242
0!G247
x!G252
0!G260
x!G303
x!G309
x!G315
x!G321
x!G360
x!G365
x!G373
x!G379
x!G384
0!G392
x!G397
x!G405
x!G408
0!G416
0!G424
x!G427
x!G438
x!G441
x!G447
x!G451
x!G459
x!G464
x!G469
x!G477
x!G494
x!G498
x!G503
x!G526
x!G531
x!G536
x!G541
x!G548
x!G565
x!G569
x!G573
x!G577
x!G590
x!G608
x!G613
0!G657
x!G663
x!G669
x!G675
x!G682
x!G687
x!G693
x!G705
x!G707
0!G713
#10000
1CLK
#10500
0CLK
0!G0
0!G1
0!G2
0!G3
0!G4
0!G5
0!G6
0!G7
0!G8
0!G9
0!G10
0!G11
0!G12
0!G13
0!G14
0!G15
0!G16
0!G22
0!G23
0!G24
0!G25
0!G26
0!G27
0!G28
0!G29
0!G30
0!G31
0!G32
0!G33
0!G34
0!G35
0!G36
0!G37
0!G38
0!G39
0!G40
0!G41
0!G42
0!G43
0!G44
0!G45
0!G46
0!G47
0!G48
0!G49
0!G50
0!G51
0!G52
0!G53
0!G54
0!G55
0!G56
0!G57
0!G58
0!G59
0!G60
0!G61
0!G62
0!G63
0!G64
0!G65
0!G66
0!G67
0!G68
0!G69
0!G70
0!G71
0!G72
0!G73
0!G74
0!G75
0!G76
0!G77
0!G78
0!G79
0!G80
0!G81
0!G82
0!G83
0!G84
0!G85
0!G86
0!G87
0!G88
0!G89
0!G90
0!G91
0!G92
0!G93
0!G94
0!G95
0!G726
1!G729
x!G702
x!G727
0!G701BF
x!G332BF
x!G328BF
x!G109
0!G113
0!G118
x!G125
0!G129
x!G140
x!G144
x!G149
x!G154
x!G159
x!G166
0!G175
x!G189
x!G193
x!G198
x!G208
x!G214
x!G218
0!G237
x!G242
x!G247
x!G252
x!G260
x!G303
x!G309
x!G315
x!G321
x!G360
x!G365
x!G373
x!G379
x!G384
x!G392
x!G397
0!G405
0!G408
x!G416
x!G424
x!G427
x!G438
x!G441
x!G447
x!G451
x!G459
x!G464
x!G469
x!G477
x!G494
x!G498
1!G503
x!G526
0!G531
0!G536
0!G541
0!G548
x!G565
x!G569
x!G573
x!G577
x!G590
x!G608
x!G613
x!G657
x!G663
x!G669
x!G675
1!G682
1!G687
1!G693
x!G705
x!G707
0!G713
#11000
1CLK
#11500
0CLK
0!G0
0!G1
0!G2
0!G3
0!G4
0!G5
0!G6
0!G7
0!G8
0!G9
0!G10
0!G11
0!G12
0!G13
0!G14
0!G15
0!G16
0!G22
0!G23
0!G24
0!G25
0!G26
0!G27
0!G28
0!G29
0!G30
0!G31
0!G32
0!G33
0!G34
0!G35
0!G36
0!G37
0!G38
0!G39
0!G40
0!G41
0!G42
0!G43
0!G44
0!G45
0!G46
0!G47
0!G48
0!G49
0!G50
0!G51
0!G52
0!G53
0!G54
0!G55
0!G56
0!G57
0!G58
0!G59
0!G60
0!G61
0!G62
0!G63
0!G64
0!G65
0!G66
0!G67
0!G68
0!G69
0!G70
0!G71
0!G72
0!G73
0!G74
0!G75
0!G76
0!G77
0!G78
0!G79
0!G80
0!G81
0!G82
0!G83
0!G84
0!G85
0!G86
0!G87
0!G88
0!G89
0!G90
0!G91
0!G92
0!G93
0!G94
0!G95
0!G726
1!G729
x!G702
x!G727
0!G701BF
1!G332BF
x!G328BF
x!G109
0!G113
x!G118
x!G125
x!G129
x!G140
0!G144
x!G149
x!G154
x!G159
x!G166
0!G175
x!G189
x!G193
x!G198
x!G208
x!G214
0!G218
x!G237
x!G242
x!G247
x!G252
x!G260
x!G303
x!G309
x!G315
x!G321
x!G360
x!G365
0!G373
x!G379
x!G384
0!G392
x!G397
x!G405
x!G408
x!G416
x!G424
x!G427
x!G438
x!G441
x!G447
x!G451
x!G459
x!G464
0!G469
x!G477
x!G494
1!G498
x!G503
x!G526
x!G531
0!G536
0!G541
x!G548
x!G565
x!G569
x!G573
x!G577
x!G590
1!G608
x!G613
x!G657
x!G663
x!G669
x!G675
x!G682
x!G687
x!G693
x!G705
x!G707
0!G713
#12000
1CLK
