DCS_FinalProject/output_input3.ckt_pattern3.vcd.vcd
$date Jun  6 2011, 23:57:49 $end
$timescale 1 ps $end
$scope module LAB3 $end
$var wire	1 !G1	G1 $end
$var wire	1 !G2	G2 $end
$var wire	1 !G3	G3 $end
$var wire	1 !G4	G4 $end
$var wire	1 !G5	G5 $end
$var wire	1 !G6	G6 $end
$var wire	1 !G8	G8 $end
$var wire	1 !G9	G9 $end
$var wire	1 !G10	G10 $end
$var wire	1 !G11	G11 $end
$var wire	1 !G12	G12 $end
$var wire	1 !G13	G13 $end
$var wire	1 !G14	G14 $end
$var wire	1 !G15	G15 $end
$var wire	1 !G16	G16 $end
$var wire	1 !G17	G17 $end
$var wire	1 !G18	G18 $end
$var wire	1 !G19	G19 $end
$var wire	1 !G20	G20 $end
$var wire	1 !G21	G21 $end
$var wire	1 !G22	G22 $end
$var wire	1 !G23	G23 $end
$var wire	1 !G24	G24 $end
$var wire	1 !G25	G25 $end
$var wire	1 !G26	G26 $end
$var wire	1 !G27	G27 $end
$var wire	1 !G28	G28 $end
$var wire	1 !G29	G29 $end
$var wire	1 !G30	G30 $end
$var wire	1 !G31	G31 $end
$var wire	1 !G32	G32 $end
$var wire	1 !G33	G33 $end
$var wire	1 !G34	G34 $end
$var wire	1 !G35	G35 $end
$var wire	1 !G36	G36 $end
$var wire	1 !G64	G64 $end
$var wire	1 !G65	G65 $end
$var wire	1 !G66	G66 $end
$var wire	1 !G67	G67 $end
$var wire	1 !G68	G68 $end
$var wire	1 !G69	G69 $end
$var wire	1 !G70	G70 $end
$var wire	1 !G71	G71 $end
$var wire	1 !G72	G72 $end
$var wire	1 !G73	G73 $end
$var wire	1 !G74	G74 $end
$var wire	1 !G75	G75 $end
$var wire	1 !G76	G76 $end
$var wire	1 !G77	G77 $end
$var wire	1 !G78	G78 $end
$var wire	1 !G79	G79 $end
$var wire	1 !G80	G80 $end
$var wire	1 !G81	G81 $end
$var wire	1 !G82	G82 $end
$var wire	1 !G103BF	G103BF $end
$var wire	1 !G104BF	G104BF $end
$var wire	1 !G105BF	G105BF $end
$var wire	1 !G106BF	G106BF $end
$var wire	1 !G107	G107 $end
$var wire	1 !G83	G83 $end
$var wire	1 !G84	G84 $end
$var wire	1 !G85	G85 $end
$var wire	1 !G86BF	G86BF $end
$var wire	1 !G87BF	G87BF $end
$var wire	1 !G88BF	G88BF $end
$var wire	1 !G89BF	G89BF $end
$var wire	1 !G90	G90 $end
$var wire	1 !G91	G91 $end
$var wire	1 !G92	G92 $end
$var wire	1 !G94	G94 $end
$var wire	1 !G95BF	G95BF $end
$var wire	1 !G96BF	G96BF $end
$var wire	1 !G97BF	G97BF $end
$var wire	1 !G98BF	G98BF $end
$var wire	1 !G99BF	G99BF $end
$var wire	1 !G100BF	G100BF $end
$var wire	1 !G101BF	G101BF $end
$var wire	1 !G380	G380 $end
$var wire	1 !G262	G262 $end
$var wire	1 !G394	G394 $end
$var wire	1 !G250	G250 $end
$var wire	1 !G122	G122 $end
$var wire	1 !G133	G133 $end
$var wire	1 !G138	G138 $end
$var wire	1 !G139	G139 $end
$var wire	1 !G140	G140 $end
$var wire	1 !G141	G141 $end
$var wire	1 !G142	G142 $end
$var wire	1 !G125	G125 $end
$var wire	1 !G126	G126 $end
$var wire	1 !G127	G127 $end
$var wire	1 !G128	G128 $end
$var wire	1 !G129	G129 $end
$var wire	1 !G130	G130 $end
$var wire	1 !G131	G131 $end
$var wire	1 !G132	G132 $end
$var reg	1 CLK	CLK $end
$upscope $end
$enddefinitions $end
$dumpvars
1CLK
x!G1
x!G2
x!G3
x!G4
x!G5
x!G6
x!G8
x!G9
x!G10
x!G11
x!G12
x!G13
x!G14
x!G15
x!G16
x!G17
x!G18
x!G19
x!G20
x!G21
x!G22
x!G23
x!G24
x!G25
x!G26
x!G27
x!G28
x!G29
x!G30
x!G31
x!G32
x!G33
x!G34
x!G35
x!G36
x!G64
x!G65
x!G66
x!G67
x!G68
x!G69
x!G70
x!G71
x!G72
x!G73
x!G74
x!G75
x!G76
x!G77
x!G78
x!G79
x!G80
x!G81
x!G82
x!G103BF
x!G104BF
x!G105BF
x!G106BF
x!G107
x!G83
x!G84
x!G85
x!G86BF
x!G87BF
x!G88BF
x!G89BF
x!G90
x!G91
x!G92
x!G94
x!G95BF
x!G96BF
x!G97BF
x!G98BF
x!G99BF
x!G100BF
x!G101BF
x!G380
x!G262
x!G394
x!G250
x!G122
x!G133
x!G138
x!G139
x!G140
x!G141
x!G142
x!G125
x!G126
x!G127
x!G128
x!G129
x!G130
x!G131
x!G132
$end
#500
0CLK
1!G1
0!G2
1!G3
0!G4
0!G5
1!G6
1!G8
1!G9
0!G10
0!G11
1!G12
1!G13
0!G14
1!G15
0!G16
1!G17
0!G18
1!G19
0!G20
1!G21
1!G22
1!G23
1!G24
1!G25
1!G26
1!G27
1!G28
1!G29
1!G30
0!G31
1!G32
0!G33
0!G34
0!G35
1!G36
0!G64
0!G65
0!G66
0!G67
1!G68
1!G69
1!G70
1!G71
1!G72
1!G73
1!G74
0!G75
0!G76
0!G77
0!G78
0!G79
0!G80
0!G81
1!G82
x!G103BF
x!G104BF
x!G105BF
x!G106BF
x!G107
x!G83
x!G84
x!G85
x!G86BF
x!G87BF
x!G88BF
x!G89BF
x!G90
x!G91
x!G92
x!G94
x!G95BF
x!G96BF
x!G97BF
x!G98BF
x!G99BF
x!G100BF
x!G101BF
x!G380
x!G262
x!G394
x!G250
x!G122
x!G133
x!G138
x!G139
x!G140
x!G141
x!G142
x!G125
x!G126
x!G127
x!G128
x!G129
x!G130
x!G131
x!G132
#1000
1CLK
#1500
0CLK
0!G1
0!G2
0!G3
0!G4
0!G5
0!G6
0!G8
0!G9
0!G10
0!G11
0!G12
0!G13
0!G14
0!G15
0!G16
0!G17
0!G18
0!G19
0!G20
0!G21
0!G22
0!G23
0!G24
0!G25
0!G26
0!G27
0!G28
0!G29
0!G30
0!G31
0!G32
0!G33
0!G34
0!G35
0!G36
0!G64
0!G65
0!G66
0!G67
0!G68
0!G69
0!G70
0!G71
0!G72
0!G73
0!G74
0!G75
0!G76
0!G77
0!G78
0!G79
0!G80
0!G81
0!G82
x!G103BF
x!G104BF
x!G105BF
x!G106BF
0!G107
x!G83
0!G84
x!G85
x!G86BF
x!G87BF
x!G88BF
x!G89BF
x!G90
x!G91
x!G92
x!G94
x!G95BF
x!G96BF
x!G97BF
x!G98BF
x!G99BF
x!G100BF
x!G101BF
x!G380
x!G262
x!G394
x!G250
x!G122
x!G133
x!G138
x!G139
x!G140
x!G141
x!G142
x!G125
x!G126
x!G127
x!G128
x!G129
x!G130
x!G131
x!G132
#2000
1CLK
#2500
0CLK
0!G1
0!G2
0!G3
0!G4
0!G5
0!G6
0!G8
0!G9
0!G10
0!G11
0!G12
0!G13
0!G14
0!G15
0!G16
0!G17
0!G18
0!G19
0!G20
0!G21
0!G22
0!G23
0!G24
0!G25
0!G26
0!G27
0!G28
0!G29
0!G30
0!G31
0!G32
0!G33
0!G34
0!G35
0!G36
0!G64
0!G65
0!G66
0!G67
0!G68
0!G69
0!G70
0!G71
0!G72
0!G73
0!G74
0!G75
0!G76
0!G77
0!G78
0!G79
0!G80
0!G81
0!G82
1!G103BF
x!G104BF
1!G105BF
x!G106BF
0!G107
0!G83
x!G84
x!G85
x!G86BF
x!G87BF
x!G88BF
x!G89BF
0!G90
1!G91
x!G92
1!G94
x!G95BF
1!G96BF
x!G97BF
1!G98BF
1!G99BF
1!G100BF
x!G101BF
x!G380
x!G262
x!G394
x!G250
x!G122
x!G133
x!G138
x!G139
x!G140
x!G141
x!G142
x!G125
x!G126
x!G127
x!G128
x!G129
x!G130
x!G131
x!G132
#3000
1CLK
#3500
0CLK
0!G1
0!G2
0!G3
0!G4
0!G5
0!G6
0!G8
0!G9
0!G10
0!G11
0!G12
0!G13
0!G14
0!G15
0!G16
0!G17
0!G18
0!G19
0!G20
0!G21
0!G22
0!G23
0!G24
0!G25
0!G26
0!G27
0!G28
0!G29
0!G30
0!G31
0!G32
0!G33
0!G34
0!G35
0!G36
0!G64
0!G65
0!G66
0!G67
0!G68
0!G69
0!G70
0!G71
0!G72
0!G73
0!G74
0!G75
0!G76
0!G77
0!G78
0!G79
0!G80
0!G81
0!G82
x!G103BF
x!G104BF
1!G105BF
x!G106BF
x!G107
x!G83
0!G84
x!G85
x!G86BF
1!G87BF
x!G88BF
x!G89BF
x!G90
0!G91
0!G92
1!G94
1!G95BF
1!G96BF
1!G97BF
1!G98BF
1!G99BF
1!G100BF
x!G101BF
x!G380
0!G262
x!G394
0!G250
x!G122
x!G133
x!G138
x!G139
x!G140
x!G141
x!G142
x!G125
x!G126
x!G127
x!G128
x!G129
x!G130
x!G131
x!G132
#4000
1CLK
#4500
0CLK
0!G1
0!G2
0!G3
0!G4
0!G5
0!G6
0!G8
0!G9
0!G10
0!G11
0!G12
0!G13
0!G14
0!G15
0!G16
0!G17
0!G18
0!G19
0!G20
0!G21
0!G22
0!G23
0!G24
0!G25
0!G26
0!G27
0!G28
0!G29
0!G30
0!G31
0!G32
0!G33
0!G34
0!G35
0!G36
0!G64
0!G65
0!G66
0!G67
0!G68
0!G69
0!G70
0!G71
0!G72
0!G73
0!G74
0!G75
0!G76
0!G77
0!G78
0!G79
0!G80
0!G81
0!G82
1!G103BF
x!G104BF
x!G105BF
x!G106BF
0!G107
x!G83
0!G84
x!G85
x!G86BF
1!G87BF
x!G88BF
x!G89BF
x!G90
0!G91
x!G92
1!G94
x!G95BF
1!G96BF
x!G97BF
x!G98BF
1!G99BF
x!G100BF
1!G101BF
x!G380
x!G262
x!G394
x!G250
x!G122
x!G133
x!G138
x!G139
x!G140
x!G141
x!G142
x!G125
x!G126
x!G127
x!G128
x!G129
x!G130
x!G131
x!G132
#5000
1CLK
#5500
0CLK
0!G1
0!G2
0!G3
0!G4
0!G5
0!G6
0!G8
0!G9
0!G10
0!G11
0!G12
0!G13
0!G14
0!G15
0!G16
0!G17
0!G18
0!G19
0!G20
0!G21
0!G22
0!G23
0!G24
0!G25
0!G26
0!G27
0!G28
0!G29
0!G30
0!G31
0!G32
0!G33
0!G34
0!G35
0!G36
0!G64
0!G65
0!G66
0!G67
0!G68
0!G69
0!G70
0!G71
0!G72
0!G73
0!G74
0!G75
0!G76
0!G77
0!G78
0!G79
0!G80
0!G81
0!G82
1!G103BF
x!G104BF
1!G105BF
x!G106BF
x!G107
0!G83
x!G84
x!G85
x!G86BF
1!G87BF
1!G88BF
x!G89BF
0!G90
1!G91
x!G92
1!G94
x!G95BF
1!G96BF
1!G97BF
x!G98BF
1!G99BF
1!G100BF
1!G101BF
x!G380
x!G262
x!G394
x!G250
x!G122
x!G133
x!G138
x!G139
x!G140
x!G141
x!G142
x!G125
x!G126
x!G127
x!G128
x!G129
0!G130
0!G131
0!G132
#6000
1CLK
#6500
0CLK
0!G1
0!G2
0!G3
0!G4
0!G5
0!G6
0!G8
0!G9
0!G10
0!G11
0!G12
0!G13
0!G14
0!G15
0!G16
0!G17
0!G18
0!G19
0!G20
0!G21
0!G22
0!G23
0!G24
0!G25
0!G26
0!G27
0!G28
0!G29
0!G30
0!G31
0!G32
0!G33
0!G34
0!G35
0!G36
0!G64
0!G65
0!G66
0!G67
0!G68
0!G69
0!G70
0!G71
0!G72
0!G73
0!G74
0!G75
0!G76
0!G77
0!G78
0!G79
0!G80
0!G81
0!G82
1!G103BF
x!G104BF
1!G105BF
x!G106BF
0!G107
0!G83
0!G84
x!G85
x!G86BF
x!G87BF
x!G88BF
x!G89BF
0!G90
1!G91
0!G92
1!G94
x!G95BF
x!G96BF
x!G97BF
x!G98BF
x!G99BF
x!G100BF
x!G101BF
x!G380
0!G262
x!G394
0!G250
x!G122
x!G133
x!G138
x!G139
x!G140
x!G141
x!G142
x!G125
0!G126
x!G127
x!G128
0!G129
x!G130
x!G131
x!G132
#7000
1CLK
#7500
0CLK
0!G1
0!G2
0!G3
0!G4
0!G5
0!G6
0!G8
0!G9
0!G10
0!G11
0!G12
0!G13
0!G14
0!G15
0!G16
0!G17
0!G18
0!G19
0!G20
0!G21
0!G22
0!G23
0!G24
0!G25
0!G26
0!G27
0!G28
0!G29
0!G30
0!G31
0!G32
0!G33
0!G34
0!G35
0!G36
0!G64
0!G65
0!G66
0!G67
0!G68
0!G69
0!G70
0!G71
0!G72
0!G73
0!G74
0!G75
0!G76
0!G77
0!G78
0!G79
0!G80
0!G81
0!G82
1!G103BF
1!G104BF
1!G105BF
1!G106BF
0!G107
1!G83
0!G84
1!G85
x!G86BF
1!G87BF
x!G88BF
x!G89BF
0!G90
0!G91
x!G92
1!G94
1!G95BF
x!G96BF
1!G97BF
1!G98BF
x!G99BF
x!G100BF
x!G101BF
0!G380
0!G262
0!G394
0!G250
x!G122
x!G133
x!G138
x!G139
x!G140
x!G141
x!G142
x!G125
x!G126
x!G127
x!G128
x!G129
x!G130
x!G131
x!G132
#8000
1CLK
#8500
0CLK
0!G1
0!G2
0!G3
0!G4
0!G5
0!G6
0!G8
0!G9
0!G10
0!G11
0!G12
0!G13
0!G14
0!G15
0!G16
0!G17
0!G18
0!G19
0!G20
0!G21
0!G22
0!G23
0!G24
0!G25
0!G26
0!G27
0!G28
0!G29
0!G30
0!G31
0!G32
0!G33
0!G34
0!G35
0!G36
0!G64
0!G65
0!G66
0!G67
0!G68
0!G69
0!G70
0!G71
0!G72
0!G73
0!G74
0!G75
0!G76
0!G77
0!G78
0!G79
0!G80
0!G81
0!G82
1!G103BF
1!G104BF
1!G105BF
1!G106BF
0!G107
0!G83
0!G84
0!G85
x!G86BF
x!G87BF
1!G88BF
x!G89BF
x!G90
1!G91
0!G92
1!G94
1!G95BF
1!G96BF
x!G97BF
0!G98BF
1!G99BF
0!G100BF
1!G101BF
0!G380
0!G262
1!G394
0!G250
x!G122
x!G133
x!G138
x!G139
x!G140
x!G141
x!G142
x!G125
x!G126
x!G127
x!G128
x!G129
0!G130
0!G131
0!G132
#9000
1CLK
#9500
0CLK
0!G1
0!G2
0!G3
0!G4
0!G5
0!G6
0!G8
0!G9
0!G10
0!G11
0!G12
0!G13
0!G14
0!G15
0!G16
0!G17
0!G18
0!G19
0!G20
0!G21
0!G22
0!G23
0!G24
0!G25
0!G26
0!G27
0!G28
0!G29
0!G30
0!G31
0!G32
0!G33
0!G34
0!G35
0!G36
0!G64
0!G65
0!G66
0!G67
0!G68
0!G69
0!G70
0!G71
0!G72
0!G73
0!G74
0!G75
0!G76
0!G77
0!G78
0!G79
0!G80
0!G81
0!G82
0!G103BF
1!G104BF
1!G105BF
0!G106BF
0!G107
0!G83
0!G84
0!G85
x!G86BF
1!G87BF
1!G88BF
1!G89BF
x!G90
0!G91
0!G92
0!G94
1!G95BF
1!G96BF
1!G97BF
1!G98BF
x!G99BF
1!G100BF
1!G101BF
1!G380
0!G262
0!G394
1!G250
x!G122
x!G133
x!G138
x!G139
x!G140
x!G141
x!G142
0!G125
x!G126
0!G127
x!G128
0!G129
0!G130
0!G131
0!G132
#10000
1CLK
#10500
0CLK
0!G1
0!G2
0!G3
0!G4
0!G5
0!G6
0!G8
0!G9
0!G10
0!G11
0!G12
0!G13
0!G14
0!G15
0!G16
0!G17
0!G18
0!G19
0!G20
0!G21
0!G22
0!G23
0!G24
0!G25
0!G26
0!G27
0!G28
0!G29
0!G30
0!G31
0!G32
0!G33
0!G34
0!G35
0!G36
0!G64
0!G65
0!G66
0!G67
0!G68
0!G69
0!G70
0!G71
0!G72
0!G73
0!G74
0!G75
0!G76
0!G77
0!G78
0!G79
0!G80
0!G81
0!G82
1!G103BF
1!G104BF
1!G105BF
1!G106BF
0!G107
0!G83
0!G84
0!G85
1!G86BF
0!G87BF
1!G88BF
1!G89BF
0!G90
1!G91
0!G92
0!G94
1!G95BF
1!G96BF
1!G97BF
0!G98BF
1!G99BF
1!G100BF
x!G101BF
1!G380
0!G262
0!G394
1!G250
x!G122
x!G133
x!G138
x!G139
x!G140
x!G141
x!G142
0!G125
0!G126
0!G127
x!G128
0!G129
0!G130
0!G131
0!G132
#11000
1CLK
#11500
0CLK
0!G1
0!G2
0!G3
0!G4
0!G5
0!G6
0!G8
0!G9
0!G10
0!G11
0!G12
0!G13
0!G14
0!G15
0!G16
0!G17
0!G18
0!G19
0!G20
0!G21
0!G22
0!G23
0!G24
0!G25
0!G26
0!G27
0!G28
0!G29
0!G30
0!G31
0!G32
0!G33
0!G34
0!G35
0!G36
0!G64
0!G65
0!G66
0!G67
0!G68
0!G69
0!G70
0!G71
0!G72
0!G73
0!G74
0!G75
0!G76
0!G77
0!G78
0!G79
0!G80
0!G81
0!G82
1!G103BF
1!G104BF
1!G105BF
1!G106BF
0!G107
1!G83
0!G84
0!G85
x!G86BF
0!G87BF
0!G88BF
1!G89BF
x!G90
0!G91
0!G92
1!G94
1!G95BF
1!G96BF
x!G97BF
1!G98BF
1!G99BF
1!G100BF
1!G101BF
0!G380
0!G262
0!G394
0!G250
x!G122
x!G133
x!G138
x!G139
x!G140
x!G141
x!G142
1!G125
0!G126
x!G127
0!G128
x!G129
0!G130
0!G131
1!G132
#12000
1CLK
#12500
0CLK
0!G1
0!G2
0!G3
0!G4
0!G5
0!G6
0!G8
0!G9
0!G10
0!G11
0!G12
0!G13
0!G14
0!G15
0!G16
0!G17
0!G18
0!G19
0!G20
0!G21
0!G22
0!G23
0!G24
0!G25
0!G26
0!G27
0!G28
0!G29
0!G30
0!G31
0!G32
0!G33
0!G34
0!G35
0!G36
0!G64
0!G65
0!G66
0!G67
0!G68
0!G69
0!G70
0!G71
0!G72
0!G73
0!G74
0!G75
0!G76
0!G77
0!G78
0!G79
0!G80
0!G81
0!G82
x!G103BF
1!G104BF
1!G105BF
1!G106BF
0!G107
0!G83
0!G84
0!G85
1!G86BF
0!G87BF
x!G88BF
1!G89BF
0!G90
1!G91
0!G92
0!G94
1!G95BF
1!G96BF
1!G97BF
0!G98BF
1!G99BF
1!G100BF
1!G101BF
x!G380
0!G262
x!G394
0!G250
x!G122
x!G133
x!G138
x!G139
x!G140
x!G141
x!G142
1!G125
0!G126
x!G127
1!G128
0!G129
0!G130
0!G131
1!G132
#13000
1CLK
#13500
0CLK
0!G1
0!G2
0!G3
0!G4
0!G5
0!G6
0!G8
0!G9
0!G10
0!G11
0!G12
0!G13
0!G14
0!G15
0!G16
0!G17
0!G18
0!G19
0!G20
0!G21
0!G22
0!G23
0!G24
0!G25
0!G26
0!G27
0!G28
0!G29
0!G30
0!G31
0!G32
0!G33
0!G34
0!G35
0!G36
0!G64
0!G65
0!G66
0!G67
0!G68
0!G69
0!G70
0!G71
0!G72
0!G73
0!G74
0!G75
0!G76
0!G77
0!G78
0!G79
0!G80
0!G81
0!G82
1!G103BF
1!G104BF
0!G105BF
0!G106BF
0!G107
0!G83
0!G84
0!G85
x!G86BF
0!G87BF
0!G88BF
1!G89BF
0!G90
1!G91
0!G92
0!G94
1!G95BF
1!G96BF
1!G97BF
1!G98BF
x!G99BF
1!G100BF
1!G101BF
0!G380
0!G262
1!G394
0!G250
x!G122
x!G133
x!G138
x!G139
x!G140
x!G141
1!G142
0!G125
0!G126
0!G127
1!G128
0!G129
0!G130
0!G131
0!G132
#14000
1CLK
#14500
0CLK
0!G1
0!G2
0!G3
0!G4
0!G5
0!G6
0!G8
0!G9
0!G10
0!G11
0!G12
0!G13
0!G14
0!G15
0!G16
0!G17
0!G18
0!G19
0!G20
0!G21
0!G22
0!G23
0!G24
0!G25
0!G26
0!G27
0!G28
0!G29
0!G30
0!G31
0!G32
0!G33
0!G34
0!G35
0!G36
0!G64
0!G65
0!G66
0!G67
0!G68
0!G69
0!G70
0!G71
0!G72
0!G73
0!G74
0!G75
0!G76
0!G77
0!G78
0!G79
0!G80
0!G81
0!G82
1!G103BF
1!G104BF
1!G105BF
1!G106BF
1!G107
1!G83
0!G84
0!G85
0!G86BF
1!G87BF
0!G88BF
1!G89BF
0!G90
0!G91
0!G92
0!G94
1!G95BF
1!G96BF
x!G97BF
1!G98BF
1!G99BF
1!G100BF
x!G101BF
0!G380
0!G262
0!G394
1!G250
x!G122
1!G133
1!G138
1!G139
1!G140
0!G141
1!G142
x!G125
0!G126
0!G127
0!G128
0!G129
0!G130
0!G131
0!G132
#15000
1CLK
#15500
0CLK
0!G1
0!G2
0!G3
0!G4
0!G5
0!G6
0!G8
0!G9
0!G10
0!G11
0!G12
0!G13
0!G14
0!G15
0!G16
0!G17
0!G18
0!G19
0!G20
0!G21
0!G22
0!G23
0!G24
0!G25
0!G26
0!G27
0!G28
0!G29
0!G30
0!G31
0!G32
0!G33
0!G34
0!G35
0!G36
0!G64
0!G65
0!G66
0!G67
0!G68
0!G69
0!G70
0!G71
0!G72
0!G73
0!G74
0!G75
0!G76
0!G77
0!G78
0!G79
0!G80
0!G81
0!G82
1!G103BF
1!G104BF
1!G105BF
1!G106BF
1!G107
0!G83
0!G84
1!G85
1!G86BF
1!G87BF
1!G88BF
1!G89BF
x!G90
1!G91
0!G92
1!G94
1!G95BF
1!G96BF
1!G97BF
1!G98BF
x!G99BF
1!G100BF
1!G101BF
0!G380
0!G262
0!G394
x!G250
0!G122
x!G133
1!G138
0!G139
0!G140
0!G141
0!G142
0!G125
1!G126
0!G127
0!G128
0!G129
0!G130
0!G131
0!G132
#16000
1CLK
#16500
0CLK
0!G1
0!G2
0!G3
0!G4
0!G5
0!G6
0!G8
0!G9
0!G10
0!G11
0!G12
0!G13
0!G14
0!G15
0!G16
0!G17
0!G18
0!G19
0!G20
0!G21
0!G22
0!G23
0!G24
0!G25
0!G26
0!G27
0!G28
0!G29
0!G30
0!G31
0!G32
0!G33
0!G34
0!G35
0!G36
0!G64
0!G65
0!G66
0!G67
0!G68
0!G69
0!G70
0!G71
0!G72
0!G73
0!G74
0!G75
0!G76
0!G77
0!G78
0!G79
0!G80
0!G81
0!G82
1!G103BF
0!G104BF
1!G105BF
1!G106BF
0!G107
0!G83
0!G84
1!G85
1!G86BF
0!G87BF
0!G88BF
1!G89BF
0!G90
1!G91
0!G92
0!G94
1!G95BF
1!G96BF
1!G97BF
1!G98BF
1!G99BF
1!G100BF
x!G101BF
0!G380
0!G262
0!G394
0!G250
0!G122
0!G133
0!G138
1!G139
1!G140
1!G141
1!G142
x!G125
0!G126
0!G127
0!G128
0!G129
0!G130
0!G131
1!G132
#17000
1CLK
#17500
0CLK
0!G1
0!G2
0!G3
0!G4
0!G5
0!G6
0!G8
0!G9
0!G10
0!G11
0!G12
0!G13
0!G14
0!G15
0!G16
0!G17
0!G18
0!G19
0!G20
0!G21
0!G22
0!G23
0!G24
0!G25
0!G26
0!G27
0!G28
0!G29
0!G30
0!G31
0!G32
0!G33
0!G34
0!G35
0!G36
0!G64
0!G65
0!G66
0!G67
0!G68
0!G69
0!G70
0!G71
0!G72
0!G73
0!G74
0!G75
0!G76
0!G77
0!G78
0!G79
0!G80
0!G81
0!G82
0!G103BF
0!G104BF
1!G105BF
0!G106BF
0!G107
0!G83
0!G84
0!G85
1!G86BF
1!G87BF
1!G88BF
1!G89BF
0!G90
0!G91
0!G92
0!G94
x!G95BF
1!G96BF
1!G97BF
1!G98BF
1!G99BF
1!G100BF
1!G101BF
1!G380
1!G262
0!G394
0!G250
x!G122
x!G133
0!G138
x!G139
x!G140
x!G141
x!G142
0!G125
0!G126
0!G127
1!G128
0!G129
0!G130
0!G131
x!G132
#18000
1CLK
#18500
0CLK
0!G1
0!G2
0!G3
0!G4
0!G5
0!G6
0!G8
0!G9
0!G10
0!G11
0!G12
0!G13
0!G14
0!G15
0!G16
0!G17
0!G18
0!G19
0!G20
0!G21
0!G22
0!G23
0!G24
0!G25
0!G26
0!G27
0!G28
0!G29
0!G30
0!G31
0!G32
0!G33
0!G34
0!G35
0!G36
0!G64
0!G65
0!G66
0!G67
0!G68
0!G69
0!G70
0!G71
0!G72
0!G73
0!G74
0!G75
0!G76
0!G77
0!G78
0!G79
0!G80
0!G81
0!G82
0!G103BF
1!G104BF
1!G105BF
0!G106BF
0!G107
0!G83
0!G84
0!G85
1!G86BF
1!G87BF
0!G88BF
0!G89BF
1!G90
0!G91
0!G92
1!G94
1!G95BF
1!G96BF
x!G97BF
1!G98BF
1!G99BF
1!G100BF
x!G101BF
1!G380
0!G262
1!G394
0!G250
x!G122
1!G133
1!G138
1!G139
1!G140
1!G141
1!G142
0!G125
0!G126
0!G127
x!G128
0!G129
0!G130
0!G131
0!G132
#19000
1CLK
#19500
0CLK
0!G1
0!G2
0!G3
0!G4
0!G5
0!G6
0!G8
0!G9
0!G10
0!G11
0!G12
0!G13
0!G14
0!G15
0!G16
0!G17
0!G18
0!G19
0!G20
0!G21
0!G22
0!G23
0!G24
0!G25
0!G26
0!G27
0!G28
0!G29
0!G30
0!G31
0!G32
0!G33
0!G34
0!G35
0!G36
0!G64
0!G65
0!G66
0!G67
0!G68
0!G69
0!G70
0!G71
0!G72
0!G73
0!G74
0!G75
0!G76
0!G77
0!G78
0!G79
0!G80
0!G81
0!G82
0!G103BF
1!G104BF
1!G105BF
1!G106BF
1!G107
1!G83
0!G84
1!G85
1!G86BF
0!G87BF
0!G88BF
1!G89BF
1!G90
1!G91
0!G92
0!G94
x!G95BF
0!G96BF
1!G97BF
0!G98BF
x!G99BF
0!G100BF
1!G101BF
1!G380
0!G262
0!G394
1!G250
x!G122
x!G133
1!G138
0!G139
1!G140
0!G141
1!G142
1!G125
0!G126
0!G127
0!G128
1!G129
1!G130
1!G131
0!G132
#20000
1CLK
#20500
0CLK
0!G1
0!G2
0!G3
0!G4
0!G5
0!G6
0!G8
0!G9
0!G10
0!G11
0!G12
0!G13
0!G14
0!G15
0!G16
0!G17
0!G18
0!G19
0!G20
0!G21
0!G22
0!G23
0!G24
0!G25
0!G26
0!G27
0!G28
0!G29
0!G30
0!G31
0!G32
0!G33
0!G34
0!G35
0!G36
0!G64
0!G65
0!G66
0!G67
0!G68
0!G69
0!G70
0!G71
0!G72
0!G73
0!G74
0!G75
0!G76
0!G77
0!G78
0!G79
0!G80
0!G81
0!G82
1!G103BF
1!G104BF
1!G105BF
1!G106BF
0!G107
0!G83
1!G84
0!G85
0!G86BF
0!G87BF
0!G88BF
1!G89BF
0!G90
1!G91
0!G92
0!G94
1!G95BF
1!G96BF
1!G97BF
1!G98BF
1!G99BF
1!G100BF
1!G101BF
0!G380
0!G262
0!G394
1!G250
0!G122
x!G133
1!G138
x!G139
x!G140
x!G141
1!G142
1!G125
1!G126
1!G127
0!G128
0!G129
0!G130
0!G131
0!G132
#21000
1CLK
#21500
0CLK
0!G1
0!G2
0!G3
0!G4
0!G5
0!G6
0!G8
0!G9
0!G10
0!G11
0!G12
0!G13
0!G14
0!G15
0!G16
0!G17
0!G18
0!G19
0!G20
0!G21
0!G22
0!G23
0!G24
0!G25
0!G26
0!G27
0!G28
0!G29
0!G30
0!G31
0!G32
0!G33
0!G34
0!G35
0!G36
0!G64
0!G65
0!G66
0!G67
0!G68
0!G69
0!G70
0!G71
0!G72
0!G73
0!G74
0!G75
0!G76
0!G77
0!G78
0!G79
0!G80
0!G81
0!G82
1!G103BF
1!G104BF
1!G105BF
1!G106BF
1!G107
0!G83
0!G84
1!G85
1!G86BF
1!G87BF
0!G88BF
1!G89BF
1!G90
1!G91
0!G92
1!G94
1!G95BF
0!G96BF
1!G97BF
1!G98BF
1!G99BF
1!G100BF
1!G101BF
0!G380
0!G262
0!G394
1!G250
x!G122
x!G133
x!G138
0!G139
0!G140
0!G141
1!G142
1!G125
1!G126
0!G127
0!G128
0!G129
0!G130
0!G131
1!G132
#22000
1CLK
#22500
0CLK
0!G1
0!G2
0!G3
0!G4
0!G5
0!G6
0!G8
0!G9
0!G10
0!G11
0!G12
0!G13
0!G14
0!G15
0!G16
0!G17
0!G18
0!G19
0!G20
0!G21
0!G22
0!G23
0!G24
0!G25
0!G26
0!G27
0!G28
0!G29
0!G30
0!G31
0!G32
0!G33
0!G34
0!G35
0!G36
0!G64
0!G65
0!G66
0!G67
0!G68
0!G69
0!G70
0!G71
0!G72
0!G73
0!G74
0!G75
0!G76
0!G77
0!G78
0!G79
0!G80
0!G81
0!G82
1!G103BF
1!G104BF
1!G105BF
0!G106BF
0!G107
0!G83
0!G84
1!G85
0!G86BF
0!G87BF
0!G88BF
1!G89BF
0!G90
1!G91
0!G92
1!G94
1!G95BF
0!G96BF
1!G97BF
1!G98BF
1!G99BF
1!G100BF
1!G101BF
0!G380
0!G262
0!G394
0!G250
0!G122
x!G133
0!G138
1!G139
1!G140
0!G141
0!G142
0!G125
0!G126
0!G127
1!G128
0!G129
0!G130
0!G131
1!G132
#23000
1CLK
#23500
0CLK
0!G1
0!G2
0!G3
0!G4
0!G5
0!G6
0!G8
0!G9
0!G10
0!G11
0!G12
0!G13
0!G14
0!G15
0!G16
0!G17
0!G18
0!G19
0!G20
0!G21
0!G22
0!G23
0!G24
0!G25
0!G26
0!G27
0!G28
0!G29
0!G30
0!G31
0!G32
0!G33
0!G34
0!G35
0!G36
0!G64
0!G65
0!G66
0!G67
0!G68
0!G69
0!G70
0!G71
0!G72
0!G73
0!G74
0!G75
0!G76
0!G77
0!G78
0!G79
0!G80
0!G81
0!G82
1!G103BF
0!G104BF
1!G105BF
1!G106BF
1!G107
0!G83
0!G84
0!G85
1!G86BF
1!G87BF
0!G88BF
1!G89BF
1!G90
0!G91
0!G92
1!G94
1!G95BF
1!G96BF
1!G97BF
1!G98BF
0!G99BF
1!G100BF
1!G101BF
0!G380
0!G262
1!G394
1!G250
x!G122
0!G133
0!G138
0!G139
0!G140
x!G141
x!G142
0!G125
0!G126
0!G127
1!G128
0!G129
0!G130
0!G131
1!G132
#24000
1CLK
