DCS_FinalProject/output_input2.ckt_pattern2.vcd.vcd
$date Jun  6 2011, 23:57:49 $end
$timescale 1 ps $end
$scope module LAB2 $end
$var wire	1 !G0	G0 $end
$var wire	1 !G1	G1 $end
$var wire	1 !G2	G2 $end
$var wire	1 !G3	G3 $end
$var wire	1 !G5	G5 $end
$var wire	1 !G6	G6 $end
$var wire	1 !G7	G7 $end
$var wire	1 !G17	G17 $end
$var wire	1 !G10	G10 $end
$var wire	1 !G11	G11 $end
$var wire	1 !G13	G13 $end
$var reg	1 CLK	CLK $end
$upscope $end
$enddefinitions $end
$dumpvars
1CLK
x!G0
x!G1
x!G2
x!G3
x!G5
x!G6
x!G7
x!G17
x!G10
x!G11
x!G13
$end
#500
0CLK
1!G0
1!G1
0!G2
0!G3
0!G5
1!G6
1!G7
x!G17
x!G10
x!G11
x!G13
#1000
1CLK
#1500
0CLK
0!G0
0!G1
0!G2
0!G3
0!G5
0!G6
0!G7
x!G17
x!G10
x!G11
x!G13
#2000
1CLK
#2500
0CLK
0!G0
0!G1
0!G2
0!G3
0!G5
0!G6
0!G7
x!G17
0!G10
x!G11
0!G13
#3000
1CLK
#3500
0CLK
0!G0
0!G1
0!G2
0!G3
0!G5
0!G6
0!G7
x!G17
1!G10
0!G11
1!G13
#4000
1CLK
#4500
0CLK
0!G0
0!G1
0!G2
0!G3
0!G5
0!G6
0!G7
1!G17
1!G10
1!G11
1!G13
#5000
1CLK
#5500
0CLK
0!G0
0!G1
0!G2
0!G3
0!G5
0!G6
0!G7
0!G17
1!G10
0!G11
0!G13
#6000
1CLK
#6500
0CLK
0!G0
0!G1
0!G2
0!G3
0!G5
0!G6
0!G7
1!G17
0!G10
1!G11
0!G13
#7000
1CLK
#7500
0CLK
0!G0
0!G1
0!G2
0!G3
0!G5
0!G6
0!G7
0!G17
1!G10
0!G11
0!G13
#8000
1CLK
#8500
0CLK
0!G0
0!G1
0!G2
0!G3
0!G5
0!G6
0!G7
1!G17
0!G10
0!G11
0!G13
#9000
1CLK
#9500
0CLK
0!G0
0!G1
0!G2
0!G3
0!G5
0!G6
0!G7
1!G17
1!G10
0!G11
1!G13
#10000
1CLK
#10500
0CLK
0!G0
0!G1
0!G2
0!G3
0!G5
0!G6
0!G7
1!G17
1!G10
1!G11
0!G13
#11000
1CLK
#11500
0CLK
0!G0
0!G1
0!G2
0!G3
0!G5
0!G6
0!G7
0!G17
1!G10
0!G11
0!G13
#12000
1CLK
#12500
0CLK
0!G0
0!G1
0!G2
0!G3
0!G5
0!G6
0!G7
1!G17
1!G10
0!G11
0!G13
#13000
1CLK
#13500
0CLK
0!G0
0!G1
0!G2
0!G3
0!G5
0!G6
0!G7
1!G17
1!G10
0!G11
0!G13
