DCS_FinalProject/output_input4.ckt_pattern4.vcd.vcd
$date Jun  6 2011, 23:57:49 $end
$timescale 1 ps $end
$scope module LAB4 $end
$var wire	1 !1GAT_0	1GAT_0 $end
$var wire	1 !4GAT_1	4GAT_1 $end
$var wire	1 !8GAT_2	8GAT_2 $end
$var wire	1 !11GAT_3	11GAT_3 $end
$var wire	1 !14GAT_4	14GAT_4 $end
$var wire	1 !17GAT_5	17GAT_5 $end
$var wire	1 !21GAT_6	21GAT_6 $end
$var wire	1 !24GAT_7	24GAT_7 $end
$var wire	1 !27GAT_8	27GAT_8 $end
$var wire	1 !30GAT_9	30GAT_9 $end
$var wire	1 !34GAT_10	34GAT_10 $end
$var wire	1 !37GAT_11	37GAT_11 $end
$var wire	1 !40GAT_12	40GAT_12 $end
$var wire	1 !43GAT_13	43GAT_13 $end
$var wire	1 !47GAT_14	47GAT_14 $end
$var wire	1 !50GAT_15	50GAT_15 $end
$var wire	1 !53GAT_16	53GAT_16 $end
$var wire	1 !56GAT_17	56GAT_17 $end
$var wire	1 !60GAT_18	60GAT_18 $end
$var wire	1 !63GAT_19	63GAT_19 $end
$var wire	1 !66GAT_20	66GAT_20 $end
$var wire	1 !69GAT_21	69GAT_21 $end
$var wire	1 !73GAT_22	73GAT_22 $end
$var wire	1 !76GAT_23	76GAT_23 $end
$var wire	1 !79GAT_24	79GAT_24 $end
$var wire	1 !82GAT_25	82GAT_25 $end
$var wire	1 !86GAT_26	86GAT_26 $end
$var wire	1 !89GAT_27	89GAT_27 $end
$var wire	1 !92GAT_28	92GAT_28 $end
$var wire	1 !95GAT_29	95GAT_29 $end
$var wire	1 !99GAT_30	99GAT_30 $end
$var wire	1 !102GAT_31	102GAT_31 $end
$var wire	1 !105GAT_32	105GAT_32 $end
$var wire	1 !108GAT_33	108GAT_33 $end
$var wire	1 !112GAT_34	112GAT_34 $end
$var wire	1 !115GAT_35	115GAT_35 $end
$var wire	1 !223GAT_84	223GAT_84 $end
$var wire	1 !329GAT_133	329GAT_133 $end
$var wire	1 !370GAT_163	370GAT_163 $end
$var wire	1 !421GAT_188	421GAT_188 $end
$var wire	1 !430GAT_193	430GAT_193 $end
$var wire	1 !431GAT_194	431GAT_194 $end
$var wire	1 !432GAT_195	432GAT_195 $end
$var reg	1 CLK	CLK $end
$upscope $end
$enddefinitions $end
$dumpvars
1CLK
x!1GAT_0
x!4GAT_1
x!8GAT_2
x!11GAT_3
x!14GAT_4
x!17GAT_5
x!21GAT_6
x!24GAT_7
x!27GAT_8
x!30GAT_9
x!34GAT_10
x!37GAT_11
x!40GAT_12
x!43GAT_13
x!47GAT_14
x!50GAT_15
x!53GAT_16
x!56GAT_17
x!60GAT_18
x!63GAT_19
x!66GAT_20
x!69GAT_21
x!73GAT_22
x!76GAT_23
x!79GAT_24
x!82GAT_25
x!86GAT_26
x!89GAT_27
x!92GAT_28
x!95GAT_29
x!99GAT_30
x!102GAT_31
x!105GAT_32
x!108GAT_33
x!112GAT_34
x!115GAT_35
x!223GAT_84
x!329GAT_133
x!370GAT_163
x!421GAT_188
x!430GAT_193
x!431GAT_194
x!432GAT_195
$end
#500
0CLK
1!1GAT_0
0!4GAT_1
0!8GAT_2
1!11GAT_3
1!14GAT_4
1!17GAT_5
0!21GAT_6
0!24GAT_7
1!27GAT_8
0!30GAT_9
1!34GAT_10
0!37GAT_11
1!40GAT_12
0!43GAT_13
1!47GAT_14
1!50GAT_15
1!53GAT_16
1!56GAT_17
1!60GAT_18
0!63GAT_19
1!66GAT_20
0!69GAT_21
0!73GAT_22
0!76GAT_23
1!79GAT_24
0!82GAT_25
0!86GAT_26
0!89GAT_27
0!92GAT_28
1!95GAT_29
0!99GAT_30
1!102GAT_31
1!105GAT_32
1!108GAT_33
0!112GAT_34
1!115GAT_35
x!223GAT_84
x!329GAT_133
x!370GAT_163
x!421GAT_188
x!430GAT_193
x!431GAT_194
x!432GAT_195
#1000
1CLK
#1500
0CLK
0!1GAT_0
0!4GAT_1
0!8GAT_2
0!11GAT_3
0!14GAT_4
0!17GAT_5
0!21GAT_6
0!24GAT_7
0!27GAT_8
0!30GAT_9
0!34GAT_10
0!37GAT_11
0!40GAT_12
0!43GAT_13
0!47GAT_14
0!50GAT_15
0!53GAT_16
0!56GAT_17
0!60GAT_18
0!63GAT_19
0!66GAT_20
0!69GAT_21
0!73GAT_22
0!76GAT_23
0!79GAT_24
0!82GAT_25
0!86GAT_26
0!89GAT_27
0!92GAT_28
0!95GAT_29
0!99GAT_30
0!102GAT_31
0!105GAT_32
0!108GAT_33
0!112GAT_34
0!115GAT_35
x!223GAT_84
x!329GAT_133
x!370GAT_163
x!421GAT_188
x!430GAT_193
x!431GAT_194
x!432GAT_195
#2000
1CLK
#2500
0CLK
0!1GAT_0
0!4GAT_1
0!8GAT_2
0!11GAT_3
0!14GAT_4
0!17GAT_5
0!21GAT_6
0!24GAT_7
0!27GAT_8
0!30GAT_9
0!34GAT_10
0!37GAT_11
0!40GAT_12
0!43GAT_13
0!47GAT_14
0!50GAT_15
0!53GAT_16
0!56GAT_17
0!60GAT_18
0!63GAT_19
0!66GAT_20
0!69GAT_21
0!73GAT_22
0!76GAT_23
0!79GAT_24
0!82GAT_25
0!86GAT_26
0!89GAT_27
0!92GAT_28
0!95GAT_29
0!99GAT_30
0!102GAT_31
0!105GAT_32
0!108GAT_33
0!112GAT_34
0!115GAT_35
x!223GAT_84
x!329GAT_133
x!370GAT_163
x!421GAT_188
0!430GAT_193
0!431GAT_194
x!432GAT_195
#3000
1CLK
#3500
0CLK
0!1GAT_0
0!4GAT_1
0!8GAT_2
0!11GAT_3
0!14GAT_4
0!17GAT_5
0!21GAT_6
0!24GAT_7
0!27GAT_8
0!30GAT_9
0!34GAT_10
0!37GAT_11
0!40GAT_12
0!43GAT_13
0!47GAT_14
0!50GAT_15
0!53GAT_16
0!56GAT_17
0!60GAT_18
0!63GAT_19
0!66GAT_20
0!69GAT_21
0!73GAT_22
0!76GAT_23
0!79GAT_24
0!82GAT_25
0!86GAT_26
0!89GAT_27
0!92GAT_28
0!95GAT_29
0!99GAT_30
0!102GAT_31
0!105GAT_32
0!108GAT_33
0!112GAT_34
0!115GAT_35
0!223GAT_84
x!329GAT_133
x!370GAT_163
x!421GAT_188
0!430GAT_193
0!431GAT_194
0!432GAT_195
#4000
1CLK
#4500
0CLK
0!1GAT_0
0!4GAT_1
0!8GAT_2
0!11GAT_3
0!14GAT_4
0!17GAT_5
0!21GAT_6
0!24GAT_7
0!27GAT_8
0!30GAT_9
0!34GAT_10
0!37GAT_11
0!40GAT_12
0!43GAT_13
0!47GAT_14
0!50GAT_15
0!53GAT_16
0!56GAT_17
0!60GAT_18
0!63GAT_19
0!66GAT_20
0!69GAT_21
0!73GAT_22
0!76GAT_23
0!79GAT_24
0!82GAT_25
0!86GAT_26
0!89GAT_27
0!92GAT_28
0!95GAT_29
0!99GAT_30
0!102GAT_31
0!105GAT_32
0!108GAT_33
0!112GAT_34
0!115GAT_35
0!223GAT_84
x!329GAT_133
x!370GAT_163
1!421GAT_188
0!430GAT_193
0!431GAT_194
0!432GAT_195
#5000
1CLK
#5500
0CLK
0!1GAT_0
0!4GAT_1
0!8GAT_2
0!11GAT_3
0!14GAT_4
0!17GAT_5
0!21GAT_6
0!24GAT_7
0!27GAT_8
0!30GAT_9
0!34GAT_10
0!37GAT_11
0!40GAT_12
0!43GAT_13
0!47GAT_14
0!50GAT_15
0!53GAT_16
0!56GAT_17
0!60GAT_18
0!63GAT_19
0!66GAT_20
0!69GAT_21
0!73GAT_22
0!76GAT_23
0!79GAT_24
0!82GAT_25
0!86GAT_26
0!89GAT_27
0!92GAT_28
0!95GAT_29
0!99GAT_30
0!102GAT_31
0!105GAT_32
0!108GAT_33
0!112GAT_34
0!115GAT_35
0!223GAT_84
0!329GAT_133
x!370GAT_163
1!421GAT_188
0!430GAT_193
0!431GAT_194
0!432GAT_195
#6000
1CLK
#6500
0CLK
0!1GAT_0
0!4GAT_1
0!8GAT_2
0!11GAT_3
0!14GAT_4
0!17GAT_5
0!21GAT_6
0!24GAT_7
0!27GAT_8
0!30GAT_9
0!34GAT_10
0!37GAT_11
0!40GAT_12
0!43GAT_13
0!47GAT_14
0!50GAT_15
0!53GAT_16
0!56GAT_17
0!60GAT_18
0!63GAT_19
0!66GAT_20
0!69GAT_21
0!73GAT_22
0!76GAT_23
0!79GAT_24
0!82GAT_25
0!86GAT_26
0!89GAT_27
0!92GAT_28
0!95GAT_29
0!99GAT_30
0!102GAT_31
0!105GAT_32
0!108GAT_33
0!112GAT_34
0!115GAT_35
0!223GAT_84
0!329GAT_133
x!370GAT_163
1!421GAT_188
0!430GAT_193
0!431GAT_194
0!432GAT_195
#7000
1CLK
#7500
0CLK
0!1GAT_0
0!4GAT_1
0!8GAT_2
0!11GAT_3
0!14GAT_4
0!17GAT_5
0!21GAT_6
0!24GAT_7
0!27GAT_8
0!30GAT_9
0!34GAT_10
0!37GAT_11
0!40GAT_12
0!43GAT_13
0!47GAT_14
0!50GAT_15
0!53GAT_16
0!56GAT_17
0!60GAT_18
0!63GAT_19
0!66GAT_20
0!69GAT_21
0!73GAT_22
0!76GAT_23
0!79GAT_24
0!82GAT_25
0!86GAT_26
0!89GAT_27
0!92GAT_28
0!95GAT_29
0!99GAT_30
0!102GAT_31
0!105GAT_32
0!108GAT_33
0!112GAT_34
0!115GAT_35
0!223GAT_84
0!329GAT_133
0!370GAT_163
1!421GAT_188
0!430GAT_193
0!431GAT_194
0!432GAT_195
#8000
1CLK
#8500
0CLK
0!1GAT_0
0!4GAT_1
0!8GAT_2
0!11GAT_3
0!14GAT_4
0!17GAT_5
0!21GAT_6
0!24GAT_7
0!27GAT_8
0!30GAT_9
0!34GAT_10
0!37GAT_11
0!40GAT_12
0!43GAT_13
0!47GAT_14
0!50GAT_15
0!53GAT_16
0!56GAT_17
0!60GAT_18
0!63GAT_19
0!66GAT_20
0!69GAT_21
0!73GAT_22
0!76GAT_23
0!79GAT_24
0!82GAT_25
0!86GAT_26
0!89GAT_27
0!92GAT_28
0!95GAT_29
0!99GAT_30
0!102GAT_31
0!105GAT_32
0!108GAT_33
0!112GAT_34
0!115GAT_35
0!223GAT_84
0!329GAT_133
0!370GAT_163
1!421GAT_188
0!430GAT_193
0!431GAT_194
0!432GAT_195
#9000
1CLK
#9500
0CLK
0!1GAT_0
0!4GAT_1
0!8GAT_2
0!11GAT_3
0!14GAT_4
0!17GAT_5
0!21GAT_6
0!24GAT_7
0!27GAT_8
0!30GAT_9
0!34GAT_10
0!37GAT_11
0!40GAT_12
0!43GAT_13
0!47GAT_14
0!50GAT_15
0!53GAT_16
0!56GAT_17
0!60GAT_18
0!63GAT_19
0!66GAT_20
0!69GAT_21
0!73GAT_22
0!76GAT_23
0!79GAT_24
0!82GAT_25
0!86GAT_26
0!89GAT_27
0!92GAT_28
0!95GAT_29
0!99GAT_30
0!102GAT_31
0!105GAT_32
0!108GAT_33
0!112GAT_34
0!115GAT_35
0!223GAT_84
0!329GAT_133
0!370GAT_163
1!421GAT_188
0!430GAT_193
0!431GAT_194
0!432GAT_195
#10000
1CLK
#10500
0CLK
0!1GAT_0
0!4GAT_1
0!8GAT_2
0!11GAT_3
0!14GAT_4
0!17GAT_5
0!21GAT_6
0!24GAT_7
0!27GAT_8
0!30GAT_9
0!34GAT_10
0!37GAT_11
0!40GAT_12
0!43GAT_13
0!47GAT_14
0!50GAT_15
0!53GAT_16
0!56GAT_17
0!60GAT_18
0!63GAT_19
0!66GAT_20
0!69GAT_21
0!73GAT_22
0!76GAT_23
0!79GAT_24
0!82GAT_25
0!86GAT_26
0!89GAT_27
0!92GAT_28
0!95GAT_29
0!99GAT_30
0!102GAT_31
0!105GAT_32
0!108GAT_33
0!112GAT_34
0!115GAT_35
0!223GAT_84
0!329GAT_133
0!370GAT_163
1!421GAT_188
0!430GAT_193
0!431GAT_194
0!432GAT_195
#11000
1CLK
#11500
0CLK
0!1GAT_0
0!4GAT_1
0!8GAT_2
0!11GAT_3
0!14GAT_4
0!17GAT_5
0!21GAT_6
0!24GAT_7
0!27GAT_8
0!30GAT_9
0!34GAT_10
0!37GAT_11
0!40GAT_12
0!43GAT_13
0!47GAT_14
0!50GAT_15
0!53GAT_16
0!56GAT_17
0!60GAT_18
0!63GAT_19
0!66GAT_20
0!69GAT_21
0!73GAT_22
0!76GAT_23
0!79GAT_24
0!82GAT_25
0!86GAT_26
0!89GAT_27
0!92GAT_28
0!95GAT_29
0!99GAT_30
0!102GAT_31
0!105GAT_32
0!108GAT_33
0!112GAT_34
0!115GAT_35
0!223GAT_84
0!329GAT_133
0!370GAT_163
1!421GAT_188
0!430GAT_193
0!431GAT_194
0!432GAT_195
#12000
1CLK
#12500
0CLK
0!1GAT_0
0!4GAT_1
0!8GAT_2
0!11GAT_3
0!14GAT_4
0!17GAT_5
0!21GAT_6
0!24GAT_7
0!27GAT_8
0!30GAT_9
0!34GAT_10
0!37GAT_11
0!40GAT_12
0!43GAT_13
0!47GAT_14
0!50GAT_15
0!53GAT_16
0!56GAT_17
0!60GAT_18
0!63GAT_19
0!66GAT_20
0!69GAT_21
0!73GAT_22
0!76GAT_23
0!79GAT_24
0!82GAT_25
0!86GAT_26
0!89GAT_27
0!92GAT_28
0!95GAT_29
0!99GAT_30
0!102GAT_31
0!105GAT_32
0!108GAT_33
0!112GAT_34
0!115GAT_35
0!223GAT_84
0!329GAT_133
0!370GAT_163
1!421GAT_188
0!430GAT_193
0!431GAT_194
0!432GAT_195
#13000
1CLK
#13500
0CLK
0!1GAT_0
0!4GAT_1
0!8GAT_2
0!11GAT_3
0!14GAT_4
0!17GAT_5
0!21GAT_6
0!24GAT_7
0!27GAT_8
0!30GAT_9
0!34GAT_10
0!37GAT_11
0!40GAT_12
0!43GAT_13
0!47GAT_14
0!50GAT_15
0!53GAT_16
0!56GAT_17
0!60GAT_18
0!63GAT_19
0!66GAT_20
0!69GAT_21
0!73GAT_22
0!76GAT_23
0!79GAT_24
0!82GAT_25
0!86GAT_26
0!89GAT_27
0!92GAT_28
0!95GAT_29
0!99GAT_30
0!102GAT_31
0!105GAT_32
0!108GAT_33
0!112GAT_34
0!115GAT_35
0!223GAT_84
0!329GAT_133
0!370GAT_163
1!421GAT_188
0!430GAT_193
0!431GAT_194
0!432GAT_195
#14000
1CLK
#14500
0CLK
0!1GAT_0
0!4GAT_1
0!8GAT_2
0!11GAT_3
0!14GAT_4
0!17GAT_5
0!21GAT_6
0!24GAT_7
0!27GAT_8
0!30GAT_9
0!34GAT_10
0!37GAT_11
0!40GAT_12
0!43GAT_13
0!47GAT_14
0!50GAT_15
0!53GAT_16
0!56GAT_17
0!60GAT_18
0!63GAT_19
0!66GAT_20
0!69GAT_21
0!73GAT_22
0!76GAT_23
0!79GAT_24
0!82GAT_25
0!86GAT_26
0!89GAT_27
0!92GAT_28
0!95GAT_29
0!99GAT_30
0!102GAT_31
0!105GAT_32
0!108GAT_33
0!112GAT_34
0!115GAT_35
0!223GAT_84
0!329GAT_133
0!370GAT_163
1!421GAT_188
0!430GAT_193
0!431GAT_194
0!432GAT_195
#15000
1CLK
#15500
0CLK
0!1GAT_0
0!4GAT_1
0!8GAT_2
0!11GAT_3
0!14GAT_4
0!17GAT_5
0!21GAT_6
0!24GAT_7
0!27GAT_8
0!30GAT_9
0!34GAT_10
0!37GAT_11
0!40GAT_12
0!43GAT_13
0!47GAT_14
0!50GAT_15
0!53GAT_16
0!56GAT_17
0!60GAT_18
0!63GAT_19
0!66GAT_20
0!69GAT_21
0!73GAT_22
0!76GAT_23
0!79GAT_24
0!82GAT_25
0!86GAT_26
0!89GAT_27
0!92GAT_28
0!95GAT_29
0!99GAT_30
0!102GAT_31
0!105GAT_32
0!108GAT_33
0!112GAT_34
0!115GAT_35
1!223GAT_84
0!329GAT_133
0!370GAT_163
1!421GAT_188
0!430GAT_193
0!431GAT_194
0!432GAT_195
#16000
1CLK
#16500
0CLK
0!1GAT_0
0!4GAT_1
0!8GAT_2
0!11GAT_3
0!14GAT_4
0!17GAT_5
0!21GAT_6
0!24GAT_7
0!27GAT_8
0!30GAT_9
0!34GAT_10
0!37GAT_11
0!40GAT_12
0!43GAT_13
0!47GAT_14
0!50GAT_15
0!53GAT_16
0!56GAT_17
0!60GAT_18
0!63GAT_19
0!66GAT_20
0!69GAT_21
0!73GAT_22
0!76GAT_23
0!79GAT_24
0!82GAT_25
0!86GAT_26
0!89GAT_27
0!92GAT_28
0!95GAT_29
0!99GAT_30
0!102GAT_31
0!105GAT_32
0!108GAT_33
0!112GAT_34
0!115GAT_35
0!223GAT_84
0!329GAT_133
0!370GAT_163
1!421GAT_188
0!430GAT_193
0!431GAT_194
0!432GAT_195
#17000
1CLK
#17500
0CLK
0!1GAT_0
0!4GAT_1
0!8GAT_2
0!11GAT_3
0!14GAT_4
0!17GAT_5
0!21GAT_6
0!24GAT_7
0!27GAT_8
0!30GAT_9
0!34GAT_10
0!37GAT_11
0!40GAT_12
0!43GAT_13
0!47GAT_14
0!50GAT_15
0!53GAT_16
0!56GAT_17
0!60GAT_18
0!63GAT_19
0!66GAT_20
0!69GAT_21
0!73GAT_22
0!76GAT_23
0!79GAT_24
0!82GAT_25
0!86GAT_26
0!89GAT_27
0!92GAT_28
0!95GAT_29
0!99GAT_30
0!102GAT_31
0!105GAT_32
0!108GAT_33
0!112GAT_34
0!115GAT_35
0!223GAT_84
0!329GAT_133
0!370GAT_163
1!421GAT_188
0!430GAT_193
0!431GAT_194
0!432GAT_195
#18000
1CLK
#18500
0CLK
0!1GAT_0
0!4GAT_1
0!8GAT_2
0!11GAT_3
0!14GAT_4
0!17GAT_5
0!21GAT_6
0!24GAT_7
0!27GAT_8
0!30GAT_9
0!34GAT_10
0!37GAT_11
0!40GAT_12
0!43GAT_13
0!47GAT_14
0!50GAT_15
0!53GAT_16
0!56GAT_17
0!60GAT_18
0!63GAT_19
0!66GAT_20
0!69GAT_21
0!73GAT_22
0!76GAT_23
0!79GAT_24
0!82GAT_25
0!86GAT_26
0!89GAT_27
0!92GAT_28
0!95GAT_29
0!99GAT_30
0!102GAT_31
0!105GAT_32
0!108GAT_33
0!112GAT_34
0!115GAT_35
0!223GAT_84
0!329GAT_133
0!370GAT_163
1!421GAT_188
0!430GAT_193
0!431GAT_194
0!432GAT_195
#19000
1CLK
#19500
0CLK
0!1GAT_0
0!4GAT_1
0!8GAT_2
0!11GAT_3
0!14GAT_4
0!17GAT_5
0!21GAT_6
0!24GAT_7
0!27GAT_8
0!30GAT_9
0!34GAT_10
0!37GAT_11
0!40GAT_12
0!43GAT_13
0!47GAT_14
0!50GAT_15
0!53GAT_16
0!56GAT_17
0!60GAT_18
0!63GAT_19
0!66GAT_20
0!69GAT_21
0!73GAT_22
0!76GAT_23
0!79GAT_24
0!82GAT_25
0!86GAT_26
0!89GAT_27
0!92GAT_28
0!95GAT_29
0!99GAT_30
0!102GAT_31
0!105GAT_32
0!108GAT_33
0!112GAT_34
0!115GAT_35
0!223GAT_84
0!329GAT_133
0!370GAT_163
1!421GAT_188
0!430GAT_193
0!431GAT_194
0!432GAT_195
#20000
1CLK
#20500
0CLK
0!1GAT_0
0!4GAT_1
0!8GAT_2
0!11GAT_3
0!14GAT_4
0!17GAT_5
0!21GAT_6
0!24GAT_7
0!27GAT_8
0!30GAT_9
0!34GAT_10
0!37GAT_11
0!40GAT_12
0!43GAT_13
0!47GAT_14
0!50GAT_15
0!53GAT_16
0!56GAT_17
0!60GAT_18
0!63GAT_19
0!66GAT_20
0!69GAT_21
0!73GAT_22
0!76GAT_23
0!79GAT_24
0!82GAT_25
0!86GAT_26
0!89GAT_27
0!92GAT_28
0!95GAT_29
0!99GAT_30
0!102GAT_31
0!105GAT_32
0!108GAT_33
0!112GAT_34
0!115GAT_35
0!223GAT_84
0!329GAT_133
0!370GAT_163
1!421GAT_188
0!430GAT_193
0!431GAT_194
0!432GAT_195
#21000
1CLK
#21500
0CLK
0!1GAT_0
0!4GAT_1
0!8GAT_2
0!11GAT_3
0!14GAT_4
0!17GAT_5
0!21GAT_6
0!24GAT_7
0!27GAT_8
0!30GAT_9
0!34GAT_10
0!37GAT_11
0!40GAT_12
0!43GAT_13
0!47GAT_14
0!50GAT_15
0!53GAT_16
0!56GAT_17
0!60GAT_18
0!63GAT_19
0!66GAT_20
0!69GAT_21
0!73GAT_22
0!76GAT_23
0!79GAT_24
0!82GAT_25
0!86GAT_26
0!89GAT_27
0!92GAT_28
0!95GAT_29
0!99GAT_30
0!102GAT_31
0!105GAT_32
0!108GAT_33
0!112GAT_34
0!115GAT_35
0!223GAT_84
0!329GAT_133
0!370GAT_163
1!421GAT_188
0!430GAT_193
0!431GAT_194
0!432GAT_195
#22000
1CLK
#22500
0CLK
0!1GAT_0
0!4GAT_1
0!8GAT_2
0!11GAT_3
0!14GAT_4
0!17GAT_5
0!21GAT_6
0!24GAT_7
0!27GAT_8
0!30GAT_9
0!34GAT_10
0!37GAT_11
0!40GAT_12
0!43GAT_13
0!47GAT_14
0!50GAT_15
0!53GAT_16
0!56GAT_17
0!60GAT_18
0!63GAT_19
0!66GAT_20
0!69GAT_21
0!73GAT_22
0!76GAT_23
0!79GAT_24
0!82GAT_25
0!86GAT_26
0!89GAT_27
0!92GAT_28
0!95GAT_29
0!99GAT_30
0!102GAT_31
0!105GAT_32
0!108GAT_33
0!112GAT_34
0!115GAT_35
0!223GAT_84
0!329GAT_133
0!370GAT_163
1!421GAT_188
0!430GAT_193
0!431GAT_194
0!432GAT_195
#23000
1CLK
#23500
0CLK
0!1GAT_0
0!4GAT_1
0!8GAT_2
0!11GAT_3
0!14GAT_4
0!17GAT_5
0!21GAT_6
0!24GAT_7
0!27GAT_8
0!30GAT_9
0!34GAT_10
0!37GAT_11
0!40GAT_12
0!43GAT_13
0!47GAT_14
0!50GAT_15
0!53GAT_16
0!56GAT_17
0!60GAT_18
0!63GAT_19
0!66GAT_20
0!69GAT_21
0!73GAT_22
0!76GAT_23
0!79GAT_24
0!82GAT_25
0!86GAT_26
0!89GAT_27
0!92GAT_28
0!95GAT_29
0!99GAT_30
0!102GAT_31
0!105GAT_32
0!108GAT_33
0!112GAT_34
0!115GAT_35
0!223GAT_84
0!329GAT_133
0!370GAT_163
1!421GAT_188
0!430GAT_193
0!431GAT_194
0!432GAT_195
#24000
1CLK
#24500
0CLK
0!1GAT_0
0!4GAT_1
0!8GAT_2
0!11GAT_3
0!14GAT_4
0!17GAT_5
0!21GAT_6
0!24GAT_7
0!27GAT_8
0!30GAT_9
0!34GAT_10
0!37GAT_11
0!40GAT_12
0!43GAT_13
0!47GAT_14
0!50GAT_15
0!53GAT_16
0!56GAT_17
0!60GAT_18
0!63GAT_19
0!66GAT_20
0!69GAT_21
0!73GAT_22
0!76GAT_23
0!79GAT_24
0!82GAT_25
0!86GAT_26
0!89GAT_27
0!92GAT_28
0!95GAT_29
0!99GAT_30
0!102GAT_31
0!105GAT_32
0!108GAT_33
0!112GAT_34
0!115GAT_35
0!223GAT_84
0!329GAT_133
0!370GAT_163
1!421GAT_188
0!430GAT_193
0!431GAT_194
0!432GAT_195
#25000
1CLK
#25500
0CLK
0!1GAT_0
0!4GAT_1
0!8GAT_2
0!11GAT_3
0!14GAT_4
0!17GAT_5
0!21GAT_6
0!24GAT_7
0!27GAT_8
0!30GAT_9
0!34GAT_10
0!37GAT_11
0!40GAT_12
0!43GAT_13
0!47GAT_14
0!50GAT_15
0!53GAT_16
0!56GAT_17
0!60GAT_18
0!63GAT_19
0!66GAT_20
0!69GAT_21
0!73GAT_22
0!76GAT_23
0!79GAT_24
0!82GAT_25
0!86GAT_26
0!89GAT_27
0!92GAT_28
0!95GAT_29
0!99GAT_30
0!102GAT_31
0!105GAT_32
0!108GAT_33
0!112GAT_34
0!115GAT_35
0!223GAT_84
0!329GAT_133
0!370GAT_163
1!421GAT_188
0!430GAT_193
0!431GAT_194
0!432GAT_195
#26000
1CLK
#26500
0CLK
0!1GAT_0
0!4GAT_1
0!8GAT_2
0!11GAT_3
0!14GAT_4
0!17GAT_5
0!21GAT_6
0!24GAT_7
0!27GAT_8
0!30GAT_9
0!34GAT_10
0!37GAT_11
0!40GAT_12
0!43GAT_13
0!47GAT_14
0!50GAT_15
0!53GAT_16
0!56GAT_17
0!60GAT_18
0!63GAT_19
0!66GAT_20
0!69GAT_21
0!73GAT_22
0!76GAT_23
0!79GAT_24
0!82GAT_25
0!86GAT_26
0!89GAT_27
0!92GAT_28
0!95GAT_29
0!99GAT_30
0!102GAT_31
0!105GAT_32
0!108GAT_33
0!112GAT_34
0!115GAT_35
0!223GAT_84
0!329GAT_133
0!370GAT_163
1!421GAT_188
0!430GAT_193
0!431GAT_194
0!432GAT_195
#27000
1CLK
#27500
0CLK
0!1GAT_0
0!4GAT_1
0!8GAT_2
0!11GAT_3
0!14GAT_4
0!17GAT_5
0!21GAT_6
0!24GAT_7
0!27GAT_8
0!30GAT_9
0!34GAT_10
0!37GAT_11
0!40GAT_12
0!43GAT_13
0!47GAT_14
0!50GAT_15
0!53GAT_16
0!56GAT_17
0!60GAT_18
0!63GAT_19
0!66GAT_20
0!69GAT_21
0!73GAT_22
0!76GAT_23
0!79GAT_24
0!82GAT_25
0!86GAT_26
0!89GAT_27
0!92GAT_28
0!95GAT_29
0!99GAT_30
0!102GAT_31
0!105GAT_32
0!108GAT_33
0!112GAT_34
0!115GAT_35
0!223GAT_84
0!329GAT_133
0!370GAT_163
1!421GAT_188
0!430GAT_193
0!431GAT_194
0!432GAT_195
#28000
1CLK
#28500
0CLK
0!1GAT_0
0!4GAT_1
0!8GAT_2
0!11GAT_3
0!14GAT_4
0!17GAT_5
0!21GAT_6
0!24GAT_7
0!27GAT_8
0!30GAT_9
0!34GAT_10
0!37GAT_11
0!40GAT_12
0!43GAT_13
0!47GAT_14
0!50GAT_15
0!53GAT_16
0!56GAT_17
0!60GAT_18
0!63GAT_19
0!66GAT_20
0!69GAT_21
0!73GAT_22
0!76GAT_23
0!79GAT_24
0!82GAT_25
0!86GAT_26
0!89GAT_27
0!92GAT_28
0!95GAT_29
0!99GAT_30
0!102GAT_31
0!105GAT_32
0!108GAT_33
0!112GAT_34
0!115GAT_35
0!223GAT_84
0!329GAT_133
0!370GAT_163
1!421GAT_188
0!430GAT_193
0!431GAT_194
0!432GAT_195
#29000
1CLK
#29500
0CLK
0!1GAT_0
0!4GAT_1
0!8GAT_2
0!11GAT_3
0!14GAT_4
0!17GAT_5
0!21GAT_6
0!24GAT_7
0!27GAT_8
0!30GAT_9
0!34GAT_10
0!37GAT_11
0!40GAT_12
0!43GAT_13
0!47GAT_14
0!50GAT_15
0!53GAT_16
0!56GAT_17
0!60GAT_18
0!63GAT_19
0!66GAT_20
0!69GAT_21
0!73GAT_22
0!76GAT_23
0!79GAT_24
0!82GAT_25
0!86GAT_26
0!89GAT_27
0!92GAT_28
0!95GAT_29
0!99GAT_30
0!102GAT_31
0!105GAT_32
0!108GAT_33
0!112GAT_34
0!115GAT_35
0!223GAT_84
0!329GAT_133
0!370GAT_163
1!421GAT_188
0!430GAT_193
0!431GAT_194
0!432GAT_195
#30000
1CLK
#30500
0CLK
0!1GAT_0
0!4GAT_1
0!8GAT_2
0!11GAT_3
0!14GAT_4
0!17GAT_5
0!21GAT_6
0!24GAT_7
0!27GAT_8
0!30GAT_9
0!34GAT_10
0!37GAT_11
0!40GAT_12
0!43GAT_13
0!47GAT_14
0!50GAT_15
0!53GAT_16
0!56GAT_17
0!60GAT_18
0!63GAT_19
0!66GAT_20
0!69GAT_21
0!73GAT_22
0!76GAT_23
0!79GAT_24
0!82GAT_25
0!86GAT_26
0!89GAT_27
0!92GAT_28
0!95GAT_29
0!99GAT_30
0!102GAT_31
0!105GAT_32
0!108GAT_33
0!112GAT_34
0!115GAT_35
0!223GAT_84
0!329GAT_133
0!370GAT_163
1!421GAT_188
0!430GAT_193
0!431GAT_194
0!432GAT_195
#31000
1CLK
#31500
0CLK
0!1GAT_0
0!4GAT_1
0!8GAT_2
0!11GAT_3
0!14GAT_4
0!17GAT_5
0!21GAT_6
0!24GAT_7
0!27GAT_8
0!30GAT_9
0!34GAT_10
0!37GAT_11
0!40GAT_12
0!43GAT_13
0!47GAT_14
0!50GAT_15
0!53GAT_16
0!56GAT_17
0!60GAT_18
0!63GAT_19
0!66GAT_20
0!69GAT_21
0!73GAT_22
0!76GAT_23
0!79GAT_24
0!82GAT_25
0!86GAT_26
0!89GAT_27
0!92GAT_28
0!95GAT_29
0!99GAT_30
0!102GAT_31
0!105GAT_32
0!108GAT_33
0!112GAT_34
0!115GAT_35
0!223GAT_84
0!329GAT_133
0!370GAT_163
1!421GAT_188
0!430GAT_193
0!431GAT_194
0!432GAT_195
#32000
1CLK
#32500
0CLK
0!1GAT_0
0!4GAT_1
0!8GAT_2
0!11GAT_3
0!14GAT_4
0!17GAT_5
0!21GAT_6
0!24GAT_7
0!27GAT_8
0!30GAT_9
0!34GAT_10
0!37GAT_11
0!40GAT_12
0!43GAT_13
0!47GAT_14
0!50GAT_15
0!53GAT_16
0!56GAT_17
0!60GAT_18
0!63GAT_19
0!66GAT_20
0!69GAT_21
0!73GAT_22
0!76GAT_23
0!79GAT_24
0!82GAT_25
0!86GAT_26
0!89GAT_27
0!92GAT_28
0!95GAT_29
0!99GAT_30
0!102GAT_31
0!105GAT_32
0!108GAT_33
0!112GAT_34
0!115GAT_35
0!223GAT_84
0!329GAT_133
0!370GAT_163
1!421GAT_188
0!430GAT_193
0!431GAT_194
0!432GAT_195
#33000
1CLK
