DCS_FinalProject/pattern2.vcd
$date Jun  6 2011, 23:57:49 $end
$timescale 1 ps $end
$scope module LAB2 $end
$var wire	1 G0	G0 $end
$var wire	1 G1	G1 $end
$var wire	1 G2	G2 $end
$var wire	1 G3	G3 $end
$var wire	1 G5	G5 $end
$var wire	1 G6	G6 $end
$var wire	1 G7	G7 $end
$var reg	1 CLK	CLK $end
$upscope $end
$enddefinitions $end
$dumpvars 
xG0
xG1
xG2
xG3
xG5
xG6
xG7
1CLK
$end
#500
1G0
1G1
0G2
0G3
0G5
1G6
1G7
1G0
0G5
1G6
0CLK
#1000
1CLK
#1500
0G0
1G2
0G7
0CLK
#2000
1CLK
#2500
1G0
0G1
0G2
1G3
1G7
0CLK
#3000
1CLK
#3500
0G7
0CLK
#4000
1CLK
#4500
1G1
0CLK
#5000
1CLK
#5500
0G0
0G1
1G2
1G5
1G7
0CLK
#6000
1CLK
#6500
1G0
0G6
0G7
0CLK
#7000
1CLK
#7500
0G0
1G1
0G2
0G3
0G5
0CLK
#8000
1CLK
#8500
1G0
0G1
1G6
0CLK
