DCS_FinalProject/pattern3.vcd
$date Jun  6 2011, 23:57:49 $end
$timescale 1 ps $end
$scope module LAB3 $end
$var wire	1 G1	G1 $end
$var wire	1 G2	G2 $end
$var wire	1 G3	G3 $end
$var wire	1 G4	G4 $end
$var wire	1 G5	G5 $end
$var wire	1 G6	G6 $end
$var wire	1 G8	G8 $end
$var wire	1 G9	G9 $end
$var wire	1 G10	G10 $end
$var wire	1 G11	G11 $end
$var wire	1 G12	G12 $end
$var wire	1 G13	G13 $end
$var wire	1 G14	G14 $end
$var wire	1 G15	G15 $end
$var wire	1 G16	G16 $end
$var wire	1 G17	G17 $end
$var wire	1 G18	G18 $end
$var wire	1 G19	G19 $end
$var wire	1 G20	G20 $end
$var wire	1 G21	G21 $end
$var wire	1 G22	G22 $end
$var wire	1 G23	G23 $end
$var wire	1 G24	G24 $end
$var wire	1 G25	G25 $end
$var wire	1 G26	G26 $end
$var wire	1 G27	G27 $end
$var wire	1 G28	G28 $end
$var wire	1 G29	G29 $end
$var wire	1 G30	G30 $end
$var wire	1 G31	G31 $end
$var wire	1 G32	G32 $end
$var wire	1 G33	G33 $end
$var wire	1 G34	G34 $end
$var wire	1 G35	G35 $end
$var wire	1 G36	G36 $end
$var wire	1 G64	G64 $end
$var wire	1 G65	G65 $end
$var wire	1 G66	G66 $end
$var wire	1 G67	G67 $end
$var wire	1 G68	G68 $end
$var wire	1 G69	G69 $end
$var wire	1 G70	G70 $end
$var wire	1 G71	G71 $end
$var wire	1 G72	G72 $end
$var wire	1 G73	G73 $end
$var wire	1 G74	G74 $end
$var wire	1 G75	G75 $end
$var wire	1 G76	G76 $end
$var wire	1 G77	G77 $end
$var wire	1 G78	G78 $end
$var wire	1 G79	G79 $end
$var wire	1 G80	G80 $end
$var wire	1 G81	G81 $end
$var wire	1 G82	G82 $end
$var reg	1 CLK	CLK $end
$upscope $end
$enddefinitions $end
$dumpvars 
xG1
xG2
xG3
xG4
xG5
xG6
xG8
xG9
xG10
xG11
xG12
xG13
xG14
xG15
xG16
xG17
xG18
xG19
xG20
xG21
xG22
xG23
xG24
xG25
xG26
xG27
xG28
xG29
xG30
xG31
xG32
xG33
xG34
xG35
xG36
xG64
xG65
xG66
xG67
xG68
xG69
xG70
xG71
xG72
xG73
xG74
xG75
xG76
xG77
xG78
xG79
xG80
xG81
xG82
1CLK
$end
#500
1G1
0G2
1G3
0G4
0G5
1G6
1G8
1G9
0G10
0G11
1G12
1G13
0G14
1G15
0G16
1G17
0G18
1G19
0G20
1G21
1G22
1G23
1G24
1G25
1G26
1G27
1G28
1G29
1G30
0G31
1G32
0G33
0G34
0G35
1G36
0G64
0G65
0G66
0G67
1G68
1G69
1G70
1G71
1G72
1G73
1G74
0G75
0G76
0G77
0G78
0G79
0G80
0G81
1G82
1G1
1G3
1G6
1G8
1G9
1G12
1G13
1G15
1G17
1G19
1G21
1G22
1G23
1G24
1G25
1G26
1G27
1G28
1G30
1G32
1G36
0G64
0G65
0G66
0G67
1G68
1G69
1G70
1G71
1G72
0G75
0G78
1G82
0CLK
#1000
1CLK
#1500
0G1
1G2
1G4
1G5
0G6
1G11
0G12
1G14
0G19
1G20
0G23
0G26
0G27
0G30
0G32
1G64
1G65
1G67
0G68
0G73
0G74
1G77
1G78
1G79
1G80
0CLK
#2000
1CLK
#2500
1G1
0G2
0G4
0G8
1G10
0G11
0G14
1G16
1G18
1G19
0G20
1G26
0G28
1G30
1G32
1G33
1G35
0G36
0G65
0G67
0G69
0G71
0G72
1G73
1G75
0G77
0G79
1G81
0CLK
#3000
1CLK
#3500
0G9
0G16
0G18
0G24
1G27
1G28
0G32
0G35
1G66
1G67
1G68
0G70
1G71
0G78
0G81
0G82
0CLK
#4000
1CLK
#4500
1G2
0G5
1G9
1G12
1G18
0G19
1G20
1G23
1G24
0G26
1G31
1G32
1G34
1G35
1G36
0G64
0G66
1G69
0G71
1G72
0G73
1G74
0G75
1G76
0G80
1G81
0CLK
#5000
1CLK
#5500
0G3
1G4
1G6
1G8
0G9
0G10
0G12
1G14
0G15
0G18
0G20
0G23
0G27
0G28
0G30
0G32
0G33
1G71
0G72
1G73
1G75
0G76
1G77
1G80
0CLK
#6000
1CLK
#6500
0G1
0G2
1G3
1G5
0G8
1G9
0G14
1G15
0G17
1G19
1G20
1G23
0G24
1G27
1G28
1G30
0G31
1G32
1G33
0G34
1G64
1G65
0G68
0G69
1G70
0G71
0G74
0G75
1G78
0G81
1G82
0CLK
#7000
1CLK
#7500
1G1
0G3
0G4
0G5
0G6
0G9
1G10
1G11
1G12
1G14
1G16
1G17
0G19
0G20
0G23
0G25
1G26
0G27
0G29
0G30
0G32
0G33
1G34
0G36
0G67
1G68
1G69
1G72
0G73
1G74
0G77
1G79
0CLK
#8000
1CLK
#8500
0G1
1G3
1G5
1G8
1G9
0G10
0G11
0G14
0G15
1G20
0G21
0G22
1G23
1G27
0G28
1G32
1G33
0G34
0G35
1G36
0G65
1G66
1G67
0G68
0G69
1G71
0G74
0G78
1G81
0CLK
#9000
1CLK
#9500
1G2
0G8
0G12
0G17
1G18
1G19
0G20
1G22
1G24
1G25
0G26
0G27
1G29
1G31
0G36
0G64
0G66
0G67
1G68
1G69
0G70
0G72
1G76
0CLK
#10000
1CLK
#10500
1G1
0G5
1G6
1G8
0G9
1G10
1G11
1G12
1G14
0G16
1G17
0G22
0G25
1G26
1G27
1G28
0G29
0G31
0G32
1G34
1G64
1G65
1G66
1G70
0G71
1G73
1G74
1G75
1G78
0G79
0G80
0CLK
#11000
1CLK
#11500
1G5
0G8
1G9
0G12
1G15
1G16
1G20
1G22
1G25
1G30
1G35
1G36
0G64
0G65
1G67
0G70
1G71
1G72
0G74
0G76
1G77
1G79
1G80
0G81
0G82
0CLK
#12000
1CLK
#12500
0G2
0G6
1G8
0G9
0G10
1G12
0G13
0G14
0G15
0G16
0G17
0G18
0G19
1G21
0G25
0G27
0G30
1G31
1G32
0G33
0G34
1G64
0G66
1G70
0G72
1G74
0G77
0G80
1G81
1G82
0CLK
#13000
1CLK
#13500
0G1
1G6
1G10
0G11
1G13
1G14
1G17
1G18
1G19
0G20
0G21
0G22
1G25
1G27
0G28
1G29
1G30
0G31
0G32
1G34
0G67
1G72
0G73
0G74
0G75
1G80
0CLK
#14000
1CLK
#14500
0G3
1G9
0G10
0G13
0G14
1G15
0G19
1G21
0G29
0G30
1G32
0G34
0G35
0G64
0G69
0G71
1G73
0G78
0G79
0G82
0CLK
#15000
1CLK
#15500
1G3
0G9
1G10
1G14
1G22
0G27
1G28
1G30
0G36
1G65
1G67
0G72
1G74
1G76
1G78
1G79
0G80
1G82
0CLK
#16000
1CLK
#16500
1G1
1G2
0G6
0G8
1G9
0G10
1G11
0G18
1G20
0G21
0G22
0G28
1G29
0G30
1G34
1G36
1G64
0G67
1G69
1G71
1G72
0G73
0G74
1G77
1G80
0CLK
#17000
1CLK
#17500
0G1
0G2
0G5
0G9
0G11
1G13
0G15
0G17
1G19
0G20
0G25
1G27
0G29
1G30
1G31
0G32
1G33
1G35
0G64
1G66
0G68
0G69
0G71
1G75
0G78
0G81
0CLK
#18000
1CLK
#18500
1G5
1G8
1G11
0G14
1G16
1G18
1G21
1G22
1G28
0G30
0G33
0G34
0G35
0G36
0G65
0G66
1G67
0G70
1G71
1G73
1G74
1G78
0G82
0CLK
#19000
1CLK
#19500
1G1
0G5
1G10
0G13
1G14
1G17
0G19
1G20
0G21
0G22
0G23
1G29
1G30
1G32
1G33
1G34
1G35
1G36
1G64
1G66
1G69
0G71
0G72
0G73
0G77
0G79
0G80
1G81
0CLK
#20000
1CLK
#20500
0G1
0G20
1G21
1G22
1G23
0G32
0G64
0G66
0G69
1G71
1G72
0G74
0G76
1G79
1G82
0CLK
#21000
1CLK
#21500
0G3
1G6
0G8
1G9
0G10
0G11
1G15
0G16
0G17
0G18
0G22
0G23
0G27
0G28
0G30
0G31
0G33
0G35
1G64
1G65
0G67
1G68
1G70
0G72
1G74
0G75
1G76
1G77
0G79
1G80
0CLK
#22000
1CLK
#22500
1G3
1G4
1G10
1G11
0G14
1G17
1G18
1G20
0G21
1G25
1G32
0G34
0G36
1G66
1G69
0G70
0G71
1G75
0G77
0G78
0G80
0CLK
#23000
1CLK
#23500
1G2
0G3
0G4
1G5
0G6
0G12
1G14
1G16
0G18
0G20
1G21
1G22
0G24
0G26
1G28
0G32
1G34
1G35
1G36
0G64
0G68
1G73
0G75
1G77
1G79
1G80
0G81
0CLK
#24000
1CLK
#24500
1G1
0G5
1G8
0G10
0G15
0G17
1G18
1G20
1G23
1G24
0G29
1G30
1G33
0G34
0G35
0G65
0G66
1G67
1G68
0G69
1G70
1G72
0G73
1G75
0G77
1G78
0G79
0G82
0CLK
#25000
1CLK
#25500
0G1
1G4
1G6
0G9
1G10
0G16
0G18
1G19
0G21
0G25
1G26
1G27
0G28
1G29
1G31
1G32
1G35
1G66
0G67
0G68
0G72
0G74
0G75
0G76
0G80
1G82
0CLK
#26000
1CLK
#26500
1G1
0G4
0G10
1G12
0G14
1G16
0G19
1G21
0G24
1G25
0G26
0G27
0G29
0G30
1G34
1G64
1G65
0G66
1G68
1G71
1G72
1G73
1G74
1G76
1G79
1G81
0CLK
#27000
1CLK
#27500
1G3
1G5
0G6
1G10
0G11
1G14
1G15
0G16
1G18
1G19
0G21
0G22
0G23
1G27
1G28
1G30
0G35
0G64
0G65
1G66
1G69
0G70
0G71
0G73
1G75
0G76
0G78
0G79
1G80
0CLK
#28000
1CLK
#28500
0G5
1G6
0G8
0G10
0G12
0G15
1G16
1G17
0G18
0G19
0G20
1G21
1G24
1G26
0G27
0G30
0G31
0G32
0G34
0G36
1G64
1G65
0G66
1G70
1G73
0G74
1G79
0G80
0G82
0CLK
#29000
1CLK
#29500
0G1
0G2
1G5
1G9
1G10
1G11
1G13
0G14
0G17
1G18
1G20
1G23
0G24
0G25
0G26
0G28
1G30
1G31
1G32
0G33
1G35
1G36
0G64
0G65
1G66
1G67
0G69
0G70
1G71
1G74
0G79
1G80
0G81
0CLK
#30000
1CLK
#30500
1G2
0G5
0G9
0G10
0G11
1G12
1G14
0G16
1G17
0G21
1G22
1G24
1G25
1G26
1G28
1G29
0G30
0G31
0G32
1G34
0G35
1G64
0G66
0G67
1G69
1G70
0G74
1G77
1G78
1G81
0CLK
#31000
1CLK
#31500
0G3
1G5
0G6
1G8
0G13
0G22
0G23
0G24
1G27
0G29
1G30
1G32
1G33
0G36
0G69
0G70
0G72
1G76
1G79
0G81
1G82
0CLK
#32000
1CLK
#32500
1G1
1G3
0G5
1G6
0G8
1G10
1G11
1G15
1G16
0G18
0G20
1G22
1G23
1G24
0G28
1G29
0G32
0G33
0G34
0G64
1G66
1G69
1G70
0G71
0G73
1G74
0G75
0G76
0G78
0G79
0G82
0CLK
#33000
1CLK
#33500
0G2
1G5
0G6
0G12
1G13
0G14
0G16
0G17
1G18
1G19
1G20
1G21
0G24
0G25
0G26
1G28
0G29
0G30
1G31
1G34
1G35
1G64
1G67
0G69
1G71
1G72
0G74
1G79
1G81
0CLK
#34000
1CLK
#34500
0G1
1G2
1G6
1G8
0G10
1G12
0G15
1G16
1G17
0G18
0G19
1G26
0G27
0G28
1G30
1G33
0G34
0G35
1G36
0G64
1G65
0G68
1G73
1G74
0G79
0G80
1G82
0CLK
#35000
1CLK
#35500
0G2
1G4
0G6
1G10
0G11
0G12
1G15
0G16
1G18
1G19
0G20
0G21
0G22
0G23
0G26
1G28
1G34
0G36
1G64
0G65
0G74
1G75
1G79
0G81
0CLK
#36000
1CLK
#36500
1G1
0G4
1G6
0G8
0G10
0G13
1G14
0G15
1G16
0G18
1G21
1G22
1G23
1G24
1G27
0G28
0G30
0G33
1G35
1G36
0G64
1G65
1G69
0G70
0G73
1G74
0G75
0G77
1G80
0G82
0CLK
#37000
1CLK
#37500
1G2
0G5
1G12
1G13
1G15
0G16
0G19
1G25
1G26
0G27
1G30
0G31
1G32
1G33
0G34
0G36
1G64
0G65
0G66
0G67
1G68
1G73
1G77
1G78
0G80
1G81
1G82
0CLK
#38000
1CLK
#38500
1G9
0G13
0G14
0G15
1G19
0G21
0G22
0G23
0G24
0G25
1G27
1G28
1G29
0G33
0G35
1G66
1G67
0G74
0G78
0G79
0G81
0G82
0CLK
#39000
1CLK
#39500
0G3
1G4
0G6
1G8
0G9
1G10
1G11
1G13
1G15
1G16
1G20
1G21
1G22
1G23
1G24
1G25
1G31
1G33
1G34
1G65
0G66
0G67
0G69
1G70
0G71
0G72
0G73
1G74
1G78
1G82
0CLK
#40000
1CLK
#40500
1G3
0G4
1G5
1G9
0G10
0G11
0G12
0G13
0G15
0G16
1G18
0G19
0G21
0G22
0G23
0G26
0G29
0G31
1G35
1G36
0G65
1G71
1G72
1G76
0G77
0G78
1G81
0CLK
#41000
1CLK
#41500
0G1
0G2
0G5
1G6
0G9
1G12
1G16
0G17
1G19
1G22
1G26
0G28
1G31
0G32
0G68
1G69
0G71
1G73
0G74
1G79
1G80
0G81
0G82
0CLK
#42000
1CLK
#42500
1G9
1G10
0G12
1G14
1G15
1G17
0G18
1G21
1G23
0G24
0G27
0G31
0G34
0G35
0G64
1G65
0G70
0G72
1G74
0G79
1G82
0CLK
#43000
1CLK
#43500
1G1
1G2
1G5
0G15
0G16
0G17
1G18
0G20
0G21
0G26
1G28
1G29
1G31
1G34
0G65
1G67
1G68
0G69
1G72
0G76
1G78
0G80
1G81
0G82
0CLK
#44000
1CLK
#44500
0G1
0G5
0G6
1G12
1G13
1G17
0G19
1G20
1G21
1G24
1G26
0G28
0G30
0G31
1G32
0G67
1G69
1G70
1G71
0G72
1G77
1G80
0CLK
#45000
1CLK
#45500
0G2
0G3
1G6
0G9
0G13
0G14
1G15
1G16
0G18
1G19
0G21
0G22
0G24
1G27
0G29
1G30
1G31
0G32
0G33
0G34
1G35
1G64
1G65
1G66
0G69
0G74
1G79
1G82
0CLK
#46000
1CLK
#46500
1G1
1G3
1G13
1G14
0G16
1G18
0G20
1G22
1G24
0G25
0G27
1G28
1G29
0G30
1G32
1G34
0G35
0G36
0G64
0G65
0G66
1G67
0G68
1G69
1G72
1G74
1G75
1G76
0G77
0G79
0G80
0G81
0CLK
#47000
1CLK
#47500
1G4
0G8
1G9
1G11
0G13
0G14
1G20
1G21
0G22
0G23
0G24
0G28
1G30
0G34
1G35
1G36
1G65
0G69
0G70
0G72
0G73
0G74
0G75
0G76
1G77
1G81
0CLK
#48000
1CLK
#48500
0G3
0G4
1G5
0G6
0G9
0G10
1G14
0G15
1G16
0G20
1G22
1G23
1G25
0G26
1G27
1G28
0G29
0G31
1G33
0G35
0G65
1G73
1G74
1G76
0G77
0G78
0CLK
#49000
1CLK
#49500
0G1
1G3
1G8
0G11
1G15
0G16
0G17
0G23
1G24
0G25
1G26
0G30
1G31
1G35
1G66
1G68
1G72
0G73
1G75
1G78
1G79
1G80
0G82
0CLK
#50000
1CLK
#50500
1G2
1G6
0G8
1G9
1G10
1G13
0G14
1G20
0G21
1G23
1G25
0G27
0G28
1G30
0G32
1G34
0G36
0G66
0G67
1G69
1G70
0G75
0G81
0CLK
#51000
1CLK
#51500
1G1
0G2
1G4
1G8
0G10
1G11
0G12
1G16
1G17
0G24
0G25
0G26
1G28
0G30
1G32
0G33
1G36
1G65
1G66
1G67
0G71
0G76
0G78
0G79
0G80
1G81
0CLK
#52000
1CLK
#52500
0G1
1G2
0G9
1G10
0G11
0G13
1G14
0G17
0G18
0G20
1G25
1G27
0G28
1G29
1G30
0G31
0G32
0G34
1G64
0G65
0G67
1G73
0G74
1G82
0CLK
#53000
1CLK
#53500
1G1
0G2
0G4
0G5
0G6
0G8
1G12
1G13
0G14
0G15
0G16
0G19
1G20
1G21
1G24
1G26
1G28
0G29
0G30
1G32
1G33
1G34
0G36
0G66
1G74
1G78
1G80
0G81
0CLK
#54000
1CLK
#54500
0G1
1G4
1G5
0G13
1G14
1G15
1G16
0G20
0G27
1G30
0G33
0G34
0G64
1G66
1G67
0G68
0G73
0G74
1G75
1G77
0G78
1G79
0G80
0G82
0CLK
#55000
1CLK
#55500
1G1
0G4
0G5
1G6
1G8
1G9
0G10
1G11
0G14
0G15
0G16
1G17
1G18
1G19
1G31
0G32
1G33
1G34
0G35
1G36
1G65
0G66
0G67
1G68
0G69
1G71
0G75
0G77
1G78
0G79
1G80
0CLK
#56000
1CLK
#56500
0G1
1G5
0G8
0G9
1G10
0G11
1G13
1G14
1G15
1G16
0G19
1G20
1G27
0G31
1G32
0G36
0G65
1G73
1G74
1G75
1G82
0CLK
#57000
1CLK
#57500
1G2
0G5
1G8
1G9
0G10
1G11
0G16
0G17
0G18
1G19
0G20
0G21
0G22
0G25
0G28
1G29
1G31
0G32
1G35
1G64
1G67
1G69
0G71
0G72
0G74
0G75
1G77
1G79
0G80
0G82
0CLK
#58000
1CLK
#58500
1G1
0G3
1G5
0G8
1G10
0G15
1G17
0G19
1G20
1G21
0G23
1G25
0G27
0G30
0G31
0G33
0G34
1G36
0G64
1G65
0G67
0G69
1G71
1G72
0G73
1G75
1G76
0G77
0G78
1G81
0CLK
#59000
1CLK
#59500
0G1
0G5
1G8
0G10
0G14
1G16
0G17
1G18
1G22
0G25
0G26
1G28
1G30
1G31
1G33
1G34
0G35
0G36
1G64
0G65
0G70
0G71
0G72
1G77
1G78
0G79
0G81
1G82
0CLK
#60000
1CLK
#60500
1G1
1G4
1G5
0G6
0G9
1G10
0G12
0G16
0G18
0G20
1G23
0G29
0G31
1G32
0G33
1G35
0G64
1G66
1G69
1G70
0G75
1G80
1G81
0CLK
#61000
1CLK
#61500
0G1
0G2
1G6
0G10
1G15
1G18
1G19
0G21
0G23
0G24
1G25
1G26
1G27
0G28
0G30
1G31
0G32
0G34
0G66
0G68
0G69
1G71
1G73
0G77
0G81
0CLK
#62000
1CLK
#62500
1G3
0G4
0G6
0G8
1G12
1G14
1G17
0G18
0G19
1G23
1G24
1G29
1G30
0G31
1G32
1G34
1G64
1G68
1G69
1G72
1G74
1G79
0G80
0CLK
#63000
1CLK
#63500
0G5
1G8
1G9
1G10
0G13
0G14
0G15
1G16
1G18
1G20
1G21
0G23
0G27
0G29
0G30
0G32
1G33
1G36
0G68
0G71
0G72
0G73
0G78
0G79
1G80
0CLK
#64000
1CLK
#64500
1G1
0G3
1G4
1G5
0G16
0G17
0G18
0G20
0G21
0G25
0G26
1G30
1G31
0G33
0G34
0G36
1G65
1G68
1G78
0G80
1G81
0G82
0CLK
#65000
1CLK
#65500
0G1
1G3
0G4
0G5
1G6
0G10
1G14
1G16
1G17
1G18
1G19
1G20
1G26
1G27
0G30
1G32
0G64
1G67
0G68
0G69
0G70
1G71
1G72
1G73
1G75
0G76
1G82
0CLK
#66000
1CLK
#66500
1G1
0G8
1G10
0G14
1G15
0G16
0G17
0G20
0G22
1G23
0G24
1G25
1G28
1G29
0G31
0G32
1G33
1G34
1G36
0G65
0G75
1G76
1G77
1G80
0G81
0G82
0CLK
#67000
1CLK
#67500
0G3
1G5
0G6
1G8
0G12
1G21
1G22
1G24
0G27
0G28
0G29
1G30
0G33
0G36
1G66
1G70
0G72
1G75
0G76
0G77
0G78
1G82
0CLK
#68000
1CLK
#68500
1G3
1G6
0G8
0G9
0G10
1G12
1G14
1G17
0G24
1G27
1G28
1G29
1G31
1G32
1G33
0G35
1G64
0G66
0G67
1G69
0G70
1G72
0G73
1G76
1G77
0G80
0CLK
#69000
1CLK
#69500
0G3
0G5
1G9
0G12
0G14
1G16
0G17
0G18
0G19
1G20
0G22
0G23
1G24
0G28
0G29
0G31
0G33
0G34
1G35
1G36
0G64
1G65
1G68
0G69
1G70
1G73
0G74
0G77
1G79
1G80
1G81
0G82
0CLK
#70000
1CLK
#70500
1G5
0G9
1G10
1G14
1G17
1G18
0G20
1G22
0G26
1G33
1G64
0G65
1G66
0G70
0G71
0G72
1G74
0G76
1G77
1G78
0G81
0CLK
#71000
1CLK
#71500
0G1
1G4
1G8
0G10
1G12
0G15
1G23
0G27
1G29
1G31
0G32
1G34
0G66
1G67
1G69
1G71
0G73
0G74
1G76
0G78
1G82
0CLK
#72000
1CLK
#72500
1G1
1G2
1G3
0G4
0G6
1G9
1G10
1G13
1G15
0G16
0G18
1G20
0G22
0G25
1G26
1G27
0G30
1G32
0G34
0G35
0G64
0G68
1G70
0G71
1G72
1G73
0G75
0G76
0CLK
