DCS_FinalProject/pattern5.vcd
$date Jun 22 2011, 22:23:06 $end
$timescale 1 ps $end
$scope module LAB5 $end
$var wire	1 G0	G0 $end
$var wire	1 G1	G1 $end
$var wire	1 G2	G2 $end
$var wire	1 G3	G3 $end
$var wire	1 G4	G4 $end
$var wire	1 G5	G5 $end
$var wire	1 G6	G6 $end
$var wire	1 G7	G7 $end
$var wire	1 G8	G8 $end
$var wire	1 G9	G9 $end
$var wire	1 G10	G10 $end
$var wire	1 G11	G11 $end
$var wire	1 G12	G12 $end
$var wire	1 G13	G13 $end
$var wire	1 G14	G14 $end
$var wire	1 G15	G15 $end
$var wire	1 G16	G16 $end
$var wire	1 G22	G22 $end
$var wire	1 G23	G23 $end
$var wire	1 G24	G24 $end
$var wire	1 G25	G25 $end
$var wire	1 G26	G26 $end
$var wire	1 G27	G27 $end
$var wire	1 G28	G28 $end
$var wire	1 G29	G29 $end
$var wire	1 G30	G30 $end
$var wire	1 G31	G31 $end
$var wire	1 G32	G32 $end
$var wire	1 G33	G33 $end
$var wire	1 G34	G34 $end
$var wire	1 G35	G35 $end
$var wire	1 G36	G36 $end
$var wire	1 G37	G37 $end
$var wire	1 G38	G38 $end
$var wire	1 G39	G39 $end
$var wire	1 G40	G40 $end
$var wire	1 G41	G41 $end
$var wire	1 G42	G42 $end
$var wire	1 G43	G43 $end
$var wire	1 G44	G44 $end
$var wire	1 G45	G45 $end
$var wire	1 G46	G46 $end
$var wire	1 G47	G47 $end
$var wire	1 G48	G48 $end
$var wire	1 G49	G49 $end
$var wire	1 G50	G50 $end
$var wire	1 G51	G51 $end
$var wire	1 G52	G52 $end
$var wire	1 G53	G53 $end
$var wire	1 G54	G54 $end
$var wire	1 G55	G55 $end
$var wire	1 G56	G56 $end
$var wire	1 G57	G57 $end
$var wire	1 G58	G58 $end
$var wire	1 G59	G59 $end
$var wire	1 G60	G60 $end
$var wire	1 G61	G61 $end
$var wire	1 G62	G62 $end
$var wire	1 G63	G63 $end
$var wire	1 G64	G64 $end
$var wire	1 G65	G65 $end
$var wire	1 G66	G66 $end
$var wire	1 G67	G67 $end
$var wire	1 G68	G68 $end
$var wire	1 G69	G69 $end
$var wire	1 G70	G70 $end
$var wire	1 G71	G71 $end
$var wire	1 G72	G72 $end
$var wire	1 G73	G73 $end
$var wire	1 G74	G74 $end
$var wire	1 G75	G75 $end
$var wire	1 G76	G76 $end
$var wire	1 G77	G77 $end
$var wire	1 G78	G78 $end
$var wire	1 G79	G79 $end
$var wire	1 G80	G80 $end
$var wire	1 G81	G81 $end
$var wire	1 G82	G82 $end
$var wire	1 G83	G83 $end
$var wire	1 G84	G84 $end
$var wire	1 G85	G85 $end
$var wire	1 G86	G86 $end
$var wire	1 G87	G87 $end
$var wire	1 G88	G88 $end
$var wire	1 G89	G89 $end
$var wire	1 G90	G90 $end
$var wire	1 G91	G91 $end
$var wire	1 G92	G92 $end
$var wire	1 G93	G93 $end
$var wire	1 G94	G94 $end
$var wire	1 G95	G95 $end
$var reg	1 CLK	CLK $end
$upscope $end
$enddefinitions $end
$dumpvars 
xG0
xG1
xG2
xG3
xG4
xG5
xG6
xG7
xG8
xG9
xG10
xG11
xG12
xG13
xG14
xG15
xG16
xG22
xG23
xG24
xG25
xG26
xG27
xG28
xG29
xG30
xG31
xG32
xG33
xG34
xG35
xG36
xG37
xG38
xG39
xG40
xG41
xG42
xG43
xG44
xG45
xG46
xG47
xG48
xG49
xG50
xG51
xG52
xG53
xG54
xG55
xG56
xG57
xG58
xG59
xG60
xG61
xG62
xG63
xG64
xG65
xG66
xG67
xG68
xG69
xG70
xG71
xG72
xG73
xG74
xG75
xG76
xG77
xG78
xG79
xG80
xG81
xG82
xG83
xG84
xG85
xG86
xG87
xG88
xG89
xG90
xG91
xG92
xG93
xG94
xG95
1CLK
$end
#500
1G0
0G1
1G2
1G3
1G4
0G5
0G6
1G7
0G8
1G9
0G10
1G11
0G12
1G13
1G14
1G15
1G16
1G22
1G23
0G24
1G25
0G26
0G27
0G28
1G29
0G30
0G31
0G32
0G33
1G34
0G35
1G36
1G37
1G38
0G39
1G40
1G41
0G42
1G43
0G44
1G45
1G46
1G47
0G48
1G49
0G50
0G51
1G52
1G53
0G54
1G55
1G56
0G57
0G58
1G59
1G60
0G61
0G62
0G63
0G64
0G65
0G66
1G67
1G68
1G69
0G70
1G71
0G72
1G73
1G74
1G75
1G76
0G77
0G78
1G79
1G80
1G81
0G82
1G83
1G84
0G85
1G86
0G87
0G88
0G89
1G90
1G91
0G92
0G93
1G94
1G95
1G0
0G5
0G10
1G11
1G13
1G14
1G15
1G16
1G22
1G23
1G25
1G29
1G34
1G36
1G37
1G38
1G40
1G41
1G43
1G45
1G46
1G47
1G49
1G52
1G53
1G55
1G56
0G58
1G59
1G60
0G61
0G62
1G67
1G71
0G72
1G75
0G78
1G80
1G81
1G83
1G84
1G86
1G90
1G91
1G94
1G95
0CLK
#1000
1CLK
#1500
0G0
1G1
1G5
1G10
0G11
1G12
0G13
0G15
0G23
1G24
1G27
0G34
1G35
0G36
0G37
0G40
0G41
1G42
1G44
0G46
0G49
1G51
0G52
0G53
1G54
0G55
1G58
0G59
1G62
1G65
1G66
1G70
0G71
0G74
0G75
0G76
1G78
0G81
0G84
1G85
0G86
1G87
1G89
0G90
0G91
1G92
1G93
0G94
0G95
0CLK
#2000
1CLK
#2500
0G1
0G4
1G6
0G7
1G8
0G9
0G10
1G11
1G13
1G23
1G28
1G30
1G31
1G32
1G33
1G34
1G36
0G38
1G39
1G40
0G43
0G45
1G46
0G47
1G53
1G55
0G56
1G57
0G60
1G61
0G66
0G67
0G68
1G72
0G73
1G76
0G79
0G80
1G81
1G82
0G85
1G86
1G88
1G91
0G93
1G94
1G95
0CLK
#3000
1CLK
#3500
1G0
0G3
0G8
1G15
0G16
0G23
0G24
0G25
1G26
0G27
0G29
0G30
0G31
0G36
1G37
1G41
1G45
0G46
1G47
1G48
1G49
0G53
0G55
0G58
1G64
0G65
1G66
1G67
0G69
0G70
0G72
1G75
1G77
1G79
0G81
0G82
1G84
0G86
0G87
0G88
0G89
1G90
0G91
0G94
0G95
0CLK
#4000
1CLK
#4500
0G0
1G1
1G4
0G6
1G8
1G9
0G12
1G27
1G30
0G32
0G33
0G37
1G38
0G40
0G41
1G43
0G44
0G45
1G46
0G47
0G48
0G49
1G52
0G54
1G58
1G63
0G66
1G70
1G71
1G72
1G73
0G76
0G77
0G79
1G82
0G83
0G84
1G85
1G88
1G89
0G90
1G91
0G92
1G93
1G94
1G95
0CLK
#5000
1CLK
#5500
0G1
0G2
1G3
0G4
1G6
1G7
0G8
0G9
0G11
0G13
0G14
0G26
0G28
1G29
1G31
1G32
1G33
0G35
1G36
1G40
1G41
0G43
1G45
1G47
0G52
1G53
1G54
1G55
0G57
0G58
1G60
0G62
0G63
1G65
1G66
0G67
1G68
0G70
1G74
0G75
0G78
1G79
1G80
1G81
1G83
1G86
1G87
0G88
1G92
0CLK
#6000
1CLK
#6500
1G0
1G1
1G4
1G8
1G10
1G13
1G14
1G16
1G24
1G25
1G26
0G30
0G36
1G37
0G38
0G40
0G42
0G45
0G46
0G47
1G48
1G49
1G50
0G53
0G55
1G57
1G58
0G60
0G61
1G62
1G63
0G65
0G66
1G69
1G70
0G74
1G75
1G78
0G79
0G82
0G83
1G84
0G87
1G88
1G90
0G91
0G92
0G93
0CLK
#7000
1CLK
#7500
0G1
0G3
0G6
0G10
1G12
0G22
1G23
0G25
0G26
0G27
1G30
0G37
1G38
1G40
0G41
1G43
1G45
1G46
0G48
0G50
1G52
1G53
0G54
1G55
0G57
0G58
1G60
0G62
0G63
0G68
0G71
0G73
0G75
0G78
1G79
0G81
0G86
1G87
0G88
0G90
1G91
1G92
1G93
0G94
0CLK
#8000
1CLK
#8500
1G3
1G6
0G8
1G9
1G11
0G12
0G15
0G23
0G24
1G26
1G28
0G30
0G32
0G33
1G35
1G37
0G39
1G42
1G44
1G50
0G51
0G53
1G57
1G61
1G68
0G69
1G73
1G78
0G79
0G80
0G85
1G86
1G88
0G89
1G90
0G91
0G93
0CLK
#9000
1CLK
#9500
1G1
1G2
0G6
0G7
0G9
0G11
1G15
1G22
0G26
1G27
0G28
0G29
1G32
1G39
0G40
0G44
1G47
1G48
0G49
1G51
0G52
1G59
0G60
0G61
1G62
1G63
0G64
1G65
1G67
0G68
1G69
0G70
0G73
0G78
0G86
0G87
0G88
1G89
1G94
0CLK
#10000
1CLK
#10500
0G0
0G3
1G8
0G13
0G15
0G22
1G23
1G28
1G29
1G30
0G32
0G39
1G40
0G42
1G44
0G47
1G49
0G51
1G52
0G55
1G56
0G59
1G60
1G61
1G64
1G68
1G70
1G71
0G72
1G73
1G74
1G75
1G76
1G77
1G79
1G80
1G81
1G82
1G88
1G93
0G94
0CLK
#11000
1CLK
#11500
0G1
0G4
0G5
1G9
1G11
1G12
1G13
1G24
1G25
1G33
1G39
0G44
0G45
0G46
0G48
0G50
1G53
1G55
0G60
0G61
0G62
0G64
0G67
0G70
0G71
0G73
0G74
0G75
0G76
1G78
0G79
0G80
0G81
0G82
0G84
1G85
0G89
0G93
0CLK
#12000
1CLK
#12500
0G2
1G4
1G6
1G7
0G9
0G13
1G15
0G30
0G31
1G32
0G33
0G39
0G40
1G41
1G44
1G46
0G49
1G50
0G52
0G55
1G64
1G67
0G68
0G69
1G72
1G73
1G74
1G75
1G76
0G78
1G79
1G80
1G82
1G84
0G85
0G88
1G89
1G93
0CLK
#13000
1CLK
#13500
1G1
0G4
1G5
0G11
1G13
0G15
0G23
0G24
1G26
0G27
0G28
0G29
1G31
1G33
0G35
1G39
1G40
0G41
1G42
0G43
0G44
1G47
1G49
1G52
1G55
1G59
0G64
0G67
1G68
1G70
0G80
1G81
1G85
1G86
0G93
1G94
0G95
0CLK
#14000
1CLK
#14500
1G4
0G5
0G6
1G10
0G13
1G15
1G22
1G23
0G26
1G27
0G33
1G35
0G40
1G41
0G42
1G60
1G61
1G64
0G65
1G67
0G68
0G70
1G71
0G72
0G73
0G79
1G80
0G84
0G85
0G86
0G94
0CLK
#15000
1CLK
#15500
1G0
1G2
0G4
1G5
1G6
0G8
0G12
0G23
0G25
0G27
1G29
1G30
1G33
1G36
0G37
0G39
1G40
1G42
1G43
1G44
0G47
1G48
0G49
1G51
0G53
1G54
0G55
0G57
1G58
0G59
0G61
1G62
0G64
1G66
0G67
1G70
0G71
0G76
0G77
0G80
1G84
1G85
1G86
1G87
1G88
0G89
0G92
1G93
1G94
0CLK
#16000
1CLK
#16500
0G0
0G2
1G3
1G8
1G9
0G10
0G15
0G16
0G22
1G23
1G25
1G26
0G29
0G31
0G32
0G35
0G38
0G40
0G42
0G43
0G44
1G45
0G52
1G53
0G54
1G55
0G56
0G58
1G59
0G60
1G61
1G65
0G66
0G70
0G74
1G77
1G79
1G80
0G81
0G82
0G84
0G85
0G86
0G87
1G89
0G90
1G91
0G93
1G95
0CLK
#17000
1CLK
#17500
1G2
0G5
0G8
1G13
1G16
0G23
0G26
1G28
1G29
0G30
1G31
0G34
1G35
1G43
1G44
0G46
1G47
0G53
1G54
0G55
1G56
1G58
0G59
1G60
0G61
0G62
1G64
0G65
1G66
1G67
1G68
1G69
1G71
1G72
1G73
0G75
0G77
1G78
1G82
1G84
1G85
1G86
0G88
0G91
0G95
0CLK
#18000
1CLK
#18500
0G2
1G4
1G5
1G8
0G9
1G10
1G11
0G13
1G15
0G16
1G23
1G24
1G27
1G30
0G31
0G33
1G37
1G38
1G39
1G42
0G43
0G44
0G45
0G47
0G48
0G50
1G52
1G53
0G54
0G56
1G57
0G58
1G59
0G60
1G62
0G63
0G64
0G66
0G67
0G68
1G70
0G71
0G72
0G73
1G74
1G75
1G77
0G78
0G80
1G83
0G89
1G90
1G91
0CLK
#19000
1CLK
#19500
1G2
0G3
0G8
1G9
0G10
0G11
1G12
1G13
0G27
1G33
1G34
0G35
0G36
0G41
1G46
1G47
1G49
0G51
0G53
1G54
1G55
1G56
0G57
1G60
1G61
0G62
1G64
1G65
1G67
0G69
0G83
0G85
1G87
1G88
0G90
0G91
0G94
0CLK
#20000
1CLK
#20500
0G2
0G4
0G5
0G6
0G7
1G8
0G9
1G10
1G11
0G12
0G24
1G26
0G28
1G31
1G32
0G33
0G34
1G35
1G36
0G37
0G38
1G40
0G42
1G44
1G45
1G48
0G49
0G52
0G54
0G56
1G57
1G58
0G59
0G61
1G62
1G63
0G67
1G68
0G70
1G72
0G74
1G76
1G80
1G81
0G82
1G83
1G92
1G93
1G95
0CLK
#21000
1CLK
#21500
0G1
0G8
0G15
1G24
0G25
0G26
1G28
0G29
0G32
1G33
0G36
1G37
0G39
0G40
1G41
1G42
1G43
0G48
1G49
1G50
1G51
1G52
1G53
0G57
0G58
0G60
1G61
0G62
0G64
0G65
0G68
1G70
1G71
1G73
0G76
0G77
0G79
0G81
1G82
1G85
0G88
0G93
0G95
0CLK
#22000
1CLK
#22500
1G3
1G4
1G9
0G13
1G15
1G16
1G22
0G24
1G25
1G26
1G27
0G28
1G29
1G32
1G36
1G38
1G39
1G40
0G44
0G45
0G46
1G48
0G51
0G52
1G54
0G55
1G56
1G58
0G61
1G62
0G63
1G65
1G69
0G71
0G73
1G74
0G80
0G82
0G85
0G87
1G91
0G92
1G93
1G94
0CLK
#23000
1CLK
#23500
1G0
0G3
0G4
1G5
1G7
1G8
1G12
0G15
0G16
0G27
1G28
0G29
0G30
0G33
0G35
0G37
0G38
0G39
0G41
1G44
1G45
1G46
0G47
0G48
0G50
1G51
1G52
0G54
1G55
0G56
1G57
1G59
1G63
1G66
1G67
1G68
0G70
0G72
1G77
1G78
0G83
1G85
1G92
0CLK
#24000
1CLK
#24500
1G1
1G2
1G3
1G6
0G7
0G8
0G9
0G11
0G12
1G13
0G23
1G24
0G25
0G26
1G30
1G33
0G36
1G39
0G40
1G41
1G47
0G49
0G52
0G53
1G56
0G57
0G58
1G61
0G62
0G63
1G64
0G68
1G70
1G72
0G74
0G75
1G76
0G78
1G81
0G85
0G86
1G87
1G90
0G92
0CLK
#25000
1CLK
#25500
0G0
0G3
1G4
1G9
0G10
1G12
1G15
0G24
1G25
0G28
0G31
1G40
0G41
0G42
0G46
1G49
1G50
0G51
1G53
1G60
0G61
1G68
0G69
1G73
0G76
0G77
1G78
1G79
1G80
1G82
1G83
1G85
1G86
1G92
0G93
1G95
0CLK
#26000
1CLK
#26500
1G0
0G1
1G3
0G5
0G6
1G10
0G15
1G16
0G22
1G27
1G28
1G29
0G30
0G32
0G33
1G34
1G35
1G37
1G38
0G39
1G42
0G43
0G45
1G46
1G51
1G52
0G55
0G56
0G59
1G61
1G62
1G63
0G64
0G65
0G68
1G69
0G70
1G71
0G72
0G73
1G74
1G77
0G79
0G80
0G81
0G82
0G87
1G89
0G95
0CLK
#27000
1CLK
#27500
0G0
0G3
1G6
1G7
1G8
0G10
1G11
0G13
1G15
0G16
1G22
1G23
0G28
1G30
1G33
0G34
0G35
1G36
0G37
0G38
1G43
0G44
1G45
0G49
0G50
0G53
1G56
1G58
0G62
0G63
1G64
1G65
0G66
1G72
0G74
1G76
1G79
1G80
1G81
0G94
1G95
0CLK
#28000
1CLK
#28500
1G0
1G1
1G5
0G7
0G8
1G10
0G12
1G13
0G23
1G28
0G30
0G33
1G34
1G35
0G36
1G37
1G38
1G39
0G40
0G43
1G44
0G47
1G49
1G55
0G56
1G57
1G59
0G61
1G62
0G65
1G66
1G68
1G70
0G72
1G73
1G75
0G79
0G80
0G81
0G86
1G88
0G91
1G93
1G94
0CLK
#29000
1CLK
#29500
1G3
0G5
0G10
0G11
1G12
1G16
0G22
1G23
0G25
1G32
0G34
0G39
1G40
0G42
1G43
0G46
1G47
1G50
0G51
0G52
1G56
0G59
1G61
1G63
0G64
0G67
0G71
0G73
1G74
0G78
1G79
1G80
1G81
1G82
0G83
0G89
0G92
0G93
0G94
0G95
0CLK
#30000
1CLK
#30500
0G4
0G6
1G7
1G8
1G10
0G13
0G15
0G16
0G23
1G24
1G26
0G27
0G28
1G30
0G32
1G36
1G39
0G40
0G47
1G51
1G52
1G54
0G55
0G57
0G60
0G62
0G63
1G64
1G65
0G70
1G72
0G74
0G79
1G86
1G93
0CLK
#31000
1CLK
#31500
0G0
0G10
1G11
1G13
1G15
1G16
1G23
0G24
1G25
1G28
0G30
1G31
1G33
1G34
0G35
0G36
1G40
1G41
0G43
0G44
0G45
1G47
0G50
0G51
0G52
1G55
0G56
1G57
0G58
1G60
1G62
1G63
0G66
1G70
1G71
0G72
1G73
1G74
1G78
1G79
0G84
1G87
0G88
1G92
0G93
1G94
0CLK
#32000
1CLK
#32500
0G1
0G3
1G4
1G6
0G7
1G10
0G12
0G13
0G15
0G23
0G26
1G27
0G28
1G30
1G35
0G38
0G41
1G43
1G48
1G53
0G55
1G56
1G59
0G61
0G62
0G64
0G65
1G66
1G67
1G72
0G75
0G76
0G79
0G80
0G82
0G85
0G86
1G88
0G90
1G91
0G92
1G93
0G94
1G95
0CLK
#33000
1CLK
#33500
1G0
1G1
0G2
1G5
0G6
0G9
0G11
1G13
0G14
0G16
1G23
1G24
0G27
1G28
0G29
0G31
1G32
0G35
0G37
1G41
1G42
0G43
1G44
1G45
1G50
1G52
0G53
0G54
1G55
0G56
0G57
0G59
0G60
1G62
1G64
1G65
0G66
0G67
0G68
0G74
1G75
0G77
0G78
0G81
1G84
1G85
1G86
0G87
0G88
1G90
0G91
1G92
0G93
1G94
0G95
0CLK
#34000
1CLK
#34500
0G5
1G6
1G9
0G10
0G13
1G15
1G16
0G25
1G26
1G27
0G30
1G31
1G37
0G39
0G44
0G45
1G51
0G55
1G56
1G60
0G62
0G63
0G64
0G65
1G67
1G68
0G69
0G71
0G72
0G75
1G76
1G78
1G81
0G84
0G85
1G87
1G89
0G90
0G92
0G94
1G95
0CLK
#35000
1CLK
#35500
0G0
0G1
0G4
0G6
1G11
1G13
1G14
0G16
1G22
0G23
0G27
0G28
1G29
0G31
0G32
0G33
0G34
1G35
1G36
0G37
1G39
1G43
1G44
1G45
0G47
0G51
0G56
1G59
1G61
1G62
1G63
0G67
0G68
1G69
0G70
1G71
0G73
1G75
0G76
1G77
1G80
1G83
1G84
0G86
0G87
0G89
1G94
0G95
0CLK
#36000
1CLK
#36500
0G8
0G9
0G11
1G12
0G15
0G22
1G23
0G24
1G25
1G28
1G30
1G38
0G39
0G41
0G45
1G46
0G49
0G50
0G52
1G53
1G54
1G55
1G56
1G58
0G63
1G65
1G67
0G69
1G72
0G77
0G81
1G85
1G91
1G92
1G93
0G94
0CLK
#37000
1CLK
#37500
1G7
1G10
0G12
1G15
0G23
1G27
0G29
0G30
1G32
1G33
1G37
0G38
0G43
1G45
1G49
1G51
1G52
0G54
0G56
0G59
0G60
0G62
1G63
0G65
1G66
0G67
1G69
1G70
0G71
1G73
1G74
1G76
0G78
0G83
1G88
1G89
0G91
0G92
1G94
0CLK
#38000
1CLK
#38500
1G0
1G1
1G2
0G7
1G8
1G11
1G22
1G23
1G24
0G25
1G30
1G31
0G32
1G34
1G38
1G39
1G41
0G42
0G45
0G46
0G49
1G50
0G55
1G59
0G61
0G66
0G69
0G72
0G73
0G76
1G79
1G81
1G86
0G88
1G91
1G92
0G93
0G94
1G95
0CLK
#39000
1CLK
#39500
0G1
1G4
1G6
1G7
1G9
0G10
1G12
0G13
0G14
1G16
0G23
0G26
0G30
1G32
0G36
0G37
0G40
1G43
0G44
1G46
1G49
0G50
1G54
1G56
1G57
0G58
0G59
1G61
1G62
0G63
1G64
1G65
1G66
1G68
1G69
1G71
0G74
0G75
1G76
1G77
1G78
1G83
0G86
0G91
0G92
1G93
1G94
0CLK
#40000
1CLK
#40500
1G1
0G2
0G4
1G5
0G8
1G10
1G13
0G27
1G30
0G34
1G36
1G42
1G44
1G45
1G47
1G50
0G52
0G54
1G59
0G65
1G67
0G69
0G70
1G74
0G76
0G79
1G82
0G83
1G87
0G89
0G93
0CLK
#41000
1CLK
#41500
0G0
1G3
0G7
0G9
0G13
1G14
0G24
1G25
1G26
1G27
0G28
1G29
1G34
0G35
0G38
0G39
1G40
0G41
0G43
0G45
0G46
0G47
0G49
0G50
0G56
0G59
0G61
0G62
1G63
1G65
0G68
1G69
1G70
1G73
0G74
0G77
0G82
1G83
0G84
0G85
1G86
0G87
1G88
1G89
1G92
0G94
0CLK
#42000
1CLK
#42500
0G1
1G4
0G6
0G12
0G14
0G26
0G29
0G30
0G31
0G36
1G41
0G42
1G45
0G48
1G50
1G52
0G53
1G56
0G57
1G58
1G61
0G63
0G65
0G66
0G69
0G70
0G71
0G73
0G80
0G81
0G83
1G84
0G88
1G91
0G92
1G94
0CLK
#43000
1CLK
#43500
1G1
1G2
1G7
1G9
0G10
0G11
1G13
1G14
0G15
1G24
0G25
1G26
0G27
1G30
1G31
0G32
0G33
1G35
1G36
0G41
1G42
0G44
0G45
1G48
1G49
0G50
0G51
1G53
0G58
1G60
1G62
1G63
1G66
0G67
1G71
1G72
1G73
1G83
1G85
1G87
0G89
1G90
0G91
1G92
1G93
0G94
0CLK
#44000
1CLK
#44500
0G1
0G3
0G4
1G8
0G9
1G12
1G15
0G16
0G22
1G23
0G26
1G27
0G30
0G31
1G32
1G33
0G34
1G39
0G42
1G43
1G44
1G51
0G53
1G55
1G57
1G58
1G59
0G60
0G62
1G65
1G67
1G69
1G70
0G72
1G74
1G75
1G76
1G77
0G78
1G80
0G85
0G86
1G88
0G90
0G92
0G93
0CLK
#45000
1CLK
#45500
1G0
1G1
1G3
1G4
0G5
1G6
1G10
0G12
0G14
0G23
0G27
1G29
1G30
0G32
0G35
0G39
0G40
1G41
1G42
0G43
1G46
0G51
0G52
1G54
0G63
0G65
0G67
0G71
1G72
0G73
1G78
1G82
0G83
0CLK
#46000
1CLK
#46500
0G0
0G1
1G5
0G6
0G7
0G8
1G11
1G23
1G25
1G26
0G29
0G30
1G31
1G32
0G33
1G34
1G35
0G36
1G37
1G38
1G39
1G40
0G41
0G42
1G43
0G46
1G51
1G53
0G54
0G55
0G57
1G60
0G64
0G70
1G71
0G72
0G76
0G77
1G81
0G82
1G83
1G85
1G86
0G88
1G91
0G95
0CLK
#47000
1CLK
#47500
1G0
0G2
0G3
0G4
1G6
1G8
0G11
1G12
0G13
0G15
1G16
0G23
0G24
0G25
1G27
1G28
1G29
1G30
0G31
1G33
0G34
0G35
0G37
0G38
0G39
1G41
1G42
0G43
0G44
1G45
1G46
0G49
0G51
0G53
0G56
0G58
0G59
0G60
0G61
1G62
1G63
1G64
0G69
1G72
0G75
1G76
1G77
0G78
0G84
0G85
0G87
1G88
1G94
0CLK
#48000
1CLK
#48500
0G0
1G2
0G6
0G8
1G11
0G12
1G14
1G15
0G16
0G26
0G27
0G29
0G33
1G34
1G35
1G37
1G38
0G41
0G42
1G43
0G45
0G46
1G47
1G50
1G51
1G56
1G57
1G58
1G60
1G67
1G68
0G71
1G73
0G74
1G75
0G77
1G78
1G79
0G80
1G82
0G83
1G84
0G86
1G93
0CLK
#49000
1CLK
#49500
1G0
1G1
1G3
1G7
1G8
1G9
0G11
1G16
1G23
1G24
1G25
1G27
0G28
1G31
1G33
0G35
1G36
0G37
0G38
1G39
0G43
1G45
1G49
0G51
0G58
1G61
0G62
0G63
0G64
1G65
0G66
0G67
0G68
1G69
0G72
0G75
0G76
0G79
0G81
0G82
1G85
1G87
0G88
1G89
1G90
1G92
0G94
1G95
0CLK
#50000
1CLK
#50500
0G2
0G3
1G6
0G7
1G11
0G15
0G16
1G22
0G23
0G24
0G25
1G28
0G31
0G32
0G33
1G37
0G39
0G40
1G41
1G42
1G43
1G44
1G46
0G47
1G54
0G56
0G57
1G58
0G60
0G61
1G62
1G63
1G64
0G65
1G66
1G67
1G68
1G70
1G71
1G72
0G73
1G74
1G75
1G76
1G77
1G79
1G81
1G82
1G86
1G88
0G89
0G91
0G92
0G95
0CLK
#51000
1CLK
#51500
0G0
0G1
1G2
1G3
1G4
0G5
0G6
0G11
1G13
1G16
0G22
1G23
1G25
1G26
0G28
1G29
1G31
1G32
1G33
0G36
0G42
0G45
0G46
1G47
0G48
0G50
1G51
1G52
1G53
0G54
1G55
0G58
1G59
1G60
0G62
0G63
0G66
0G67
0G69
0G70
1G80
0G81
0G82
0G86
0G87
0G88
0G90
1G92
1G94
0CLK
#52000
1CLK
#52500
1G1
0G2
0G8
0G10
1G11
1G22
0G23
0G25
0G26
0G27
0G29
0G30
0G31
0G32
0G33
0G34
1G35
1G38
0G41
1G42
0G43
1G45
1G46
0G47
0G49
1G50
0G51
1G58
0G64
1G65
1G67
0G68
1G69
1G70
0G71
0G72
1G73
0G75
0G76
1G82
1G83
0G84
1G86
1G89
1G91
0G92
0G94
1G95
0CLK
#53000
1CLK
#53500
1G0
0G3
0G4
1G5
1G6
1G7
1G8
1G10
0G11
1G12
0G13
0G16
1G24
1G26
1G27
1G28
1G29
1G30
1G34
1G36
0G38
0G42
1G43
1G47
1G51
1G54
1G57
1G61
1G66
0G67
0G69
0G70
0G73
0G74
1G75
0G79
0G80
0G82
0G86
1G87
0G89
1G94
0G95
0CLK
#54000
1CLK
#54500
0G1
1G2
1G4
0G5
0G6
1G13
1G15
1G16
1G23
0G24
0G27
0G30
1G32
0G34
0G36
0G37
1G41
0G43
0G44
1G48
0G50
0G51
0G52
0G53
0G54
0G60
1G62
1G63
0G66
1G71
1G72
1G73
0G75
0G77
0G83
1G84
0G85
0G87
1G89
1G90
0G91
1G95
0CLK
#55000
1CLK
#55500
0G0
1G1
0G4
0G7
0G8
0G10
0G13
0G16
0G22
1G25
0G26
0G32
0G35
1G36
1G37
1G39
1G40
0G41
1G42
1G43
1G44
0G46
1G49
1G50
1G54
0G57
0G59
0G62
1G64
0G65
1G67
1G70
0G71
1G74
1G76
1G77
0G78
1G79
1G83
1G87
0G89
0G90
1G92
0CLK
#56000
1CLK
#56500
1G6
1G8
1G10
0G12
0G23
1G27
0G29
1G31
1G32
1G34
0G36
0G37
1G38
0G39
0G40
1G41
1G46
1G51
0G54
0G58
1G60
0G61
1G62
0G64
0G67
0G70
1G71
0G72
0G74
0G77
0G79
1G80
1G82
0G84
1G86
0G87
1G91
0G93
0G94
0CLK
#57000
1CLK
#57500
1G0
1G3
0G6
0G9
0G10
1G11
0G14
1G16
1G24
0G28
1G29
1G30
0G32
1G33
0G34
1G37
1G39
1G40
0G41
0G45
1G52
1G54
1G57
0G60
1G61
1G64
1G66
1G69
1G70
0G71
0G73
0G76
1G79
1G81
0G83
1G84
1G85
1G89
0G92
1G93
1G94
0G95
0CLK
#58000
1CLK
#58500
0G8
1G9
1G10
1G13
1G14
0G16
1G23
0G24
1G26
1G28
0G29
0G30
0G33
1G34
0G37
0G40
0G44
1G45
0G46
0G52
1G53
1G58
0G61
0G64
1G68
1G71
1G75
1G76
1G78
0G79
0G81
0G82
1G83
0G84
1G88
0G89
1G92
0G94
1G95
0CLK
#59000
1CLK
#59500
0G2
0G3
1G6
0G9
1G24
0G25
0G27
0G28
1G29
1G32
1G33
0G39
1G40
0G42
0G43
0G45
0G51
1G52
0G53
0G54
1G56
1G59
1G64
1G65
0G66
0G68
0G70
0G71
0G75
1G77
1G79
0G88
1G89
0G91
1G94
0CLK
#60000
1CLK
#60500
0G0
1G2
1G3
1G4
0G11
1G12
0G13
0G15
1G16
1G22
0G23
0G24
1G27
1G28
0G29
1G30
0G31
0G34
1G35
1G36
1G37
0G38
1G39
0G40
1G44
1G45
1G46
0G47
0G48
0G49
0G52
1G53
1G54
0G55
0G56
0G57
1G61
0G64
0G65
1G67
1G68
1G72
1G73
0G76
0G77
0G79
0G80
0G83
0G86
0G89
1G90
1G91
0G92
0G93
0G94
0CLK
#61000
1CLK
#61500
0G1
0G2
0G3
0G4
0G6
1G8
1G9
0G10
1G11
0G12
1G15
0G16
0G22
1G25
0G27
1G31
0G36
0G39
1G41
1G42
0G44
0G46
1G51
1G52
1G57
0G58
0G59
0G62
0G63
1G64
1G65
0G67
0G68
1G70
0G72
0G73
1G74
1G77
1G80
1G83
1G86
1G88
0G90
1G92
0G95
0CLK
#62000
1CLK
#62500
0G9
1G10
1G13
0G14
1G22
1G23
1G34
0G35
0G37
1G38
1G40
1G44
0G45
1G47
1G48
1G49
0G51
0G53
0G54
1G55
0G57
1G58
1G59
0G61
1G62
1G63
0G64
1G66
1G68
0G70
1G72
1G73
0G74
1G75
0G78
1G79
1G81
1G82
0G83
1G84
0G85
1G87
0G88
1G89
1G93
1G94
1G95
0CLK
#63000
1CLK
#63500
1G0
1G1
1G2
1G6
0G8
1G9
0G10
1G12
0G13
1G14
0G23
1G24
0G25
1G36
1G37
0G38
1G39
0G42
1G43
0G44
1G45
1G46
0G48
0G49
0G50
0G52
1G54
1G56
0G58
0G59
1G60
1G61
0G63
0G65
0G66
0G68
0G69
1G70
0G72
1G74
1G76
0G77
0G79
0G81
0G82
1G83
1G85
0G87
1G90
0G92
0G93
0G94
0G95
0CLK
#64000
1CLK
#64500
0G2
1G3
1G4
1G5
0G6
1G7
1G8
0G9
0G12
1G13
0G24
0G28
0G33
0G34
1G35
0G37
1G38
0G39
0G40
1G42
0G45
0G47
1G51
1G52
1G53
1G57
1G59
1G64
1G65
1G66
1G69
0G73
0G74
1G78
1G79
0G80
1G81
0G83
0G85
1G88
0G89
1G93
1G95
0CLK
#65000
1CLK
