DCS_FinalProject/pattern4.vcd
$date Jun  6 2011, 23:57:49 $end
$timescale 1 ps $end
$scope module LAB4 $end
$var wire	1 1GAT_0	1GAT_0 $end
$var wire	1 4GAT_1	4GAT_1 $end
$var wire	1 8GAT_2	8GAT_2 $end
$var wire	1 11GAT_3	11GAT_3 $end
$var wire	1 14GAT_4	14GAT_4 $end
$var wire	1 17GAT_5	17GAT_5 $end
$var wire	1 21GAT_6	21GAT_6 $end
$var wire	1 24GAT_7	24GAT_7 $end
$var wire	1 27GAT_8	27GAT_8 $end
$var wire	1 30GAT_9	30GAT_9 $end
$var wire	1 34GAT_10	34GAT_10 $end
$var wire	1 37GAT_11	37GAT_11 $end
$var wire	1 40GAT_12	40GAT_12 $end
$var wire	1 43GAT_13	43GAT_13 $end
$var wire	1 47GAT_14	47GAT_14 $end
$var wire	1 50GAT_15	50GAT_15 $end
$var wire	1 53GAT_16	53GAT_16 $end
$var wire	1 56GAT_17	56GAT_17 $end
$var wire	1 60GAT_18	60GAT_18 $end
$var wire	1 63GAT_19	63GAT_19 $end
$var wire	1 66GAT_20	66GAT_20 $end
$var wire	1 69GAT_21	69GAT_21 $end
$var wire	1 73GAT_22	73GAT_22 $end
$var wire	1 76GAT_23	76GAT_23 $end
$var wire	1 79GAT_24	79GAT_24 $end
$var wire	1 82GAT_25	82GAT_25 $end
$var wire	1 86GAT_26	86GAT_26 $end
$var wire	1 89GAT_27	89GAT_27 $end
$var wire	1 92GAT_28	92GAT_28 $end
$var wire	1 95GAT_29	95GAT_29 $end
$var wire	1 99GAT_30	99GAT_30 $end
$var wire	1 102GAT_31	102GAT_31 $end
$var wire	1 105GAT_32	105GAT_32 $end
$var wire	1 108GAT_33	108GAT_33 $end
$var wire	1 112GAT_34	112GAT_34 $end
$var wire	1 115GAT_35	115GAT_35 $end
$var reg	1 CLK	CLK $end
$upscope $end
$enddefinitions $end
$dumpvars 
x1GAT_0
x4GAT_1
x8GAT_2
x11GAT_3
x14GAT_4
x17GAT_5
x21GAT_6
x24GAT_7
x27GAT_8
x30GAT_9
x34GAT_10
x37GAT_11
x40GAT_12
x43GAT_13
x47GAT_14
x50GAT_15
x53GAT_16
x56GAT_17
x60GAT_18
x63GAT_19
x66GAT_20
x69GAT_21
x73GAT_22
x76GAT_23
x79GAT_24
x82GAT_25
x86GAT_26
x89GAT_27
x92GAT_28
x95GAT_29
x99GAT_30
x102GAT_31
x105GAT_32
x108GAT_33
x112GAT_34
x115GAT_35
1CLK
$end
#500
11GAT_0
04GAT_1
08GAT_2
111GAT_3
114GAT_4
117GAT_5
021GAT_6
024GAT_7
127GAT_8
030GAT_9
134GAT_10
037GAT_11
140GAT_12
043GAT_13
147GAT_14
150GAT_15
153GAT_16
156GAT_17
160GAT_18
063GAT_19
166GAT_20
069GAT_21
073GAT_22
076GAT_23
179GAT_24
082GAT_25
086GAT_26
089GAT_27
092GAT_28
195GAT_29
099GAT_30
1102GAT_31
1105GAT_32
1108GAT_33
0112GAT_34
1115GAT_35
04GAT_1
08GAT_2
117GAT_5
021GAT_6
030GAT_9
037GAT_11
043GAT_13
150GAT_15
153GAT_16
069GAT_21
073GAT_22
086GAT_26
092GAT_28
195GAT_29
1102GAT_31
1105GAT_32
1108GAT_33
1115GAT_35
0CLK
#1000
1CLK
#1500
011GAT_3
017GAT_5
034GAT_10
137GAT_11
047GAT_14
050GAT_15
056GAT_17
060GAT_18
066GAT_20
176GAT_23
192GAT_28
095GAT_29
0105GAT_32
0108GAT_33
0115GAT_35
0CLK
#2000
1CLK
#2500
01GAT_0
18GAT_2
111GAT_3
117GAT_5
124GAT_7
027GAT_8
130GAT_9
040GAT_12
143GAT_13
150GAT_15
053GAT_16
156GAT_17
160GAT_18
163GAT_19
166GAT_20
169GAT_21
173GAT_22
079GAT_24
182GAT_25
186GAT_26
189GAT_27
092GAT_28
195GAT_29
199GAT_30
1105GAT_32
1108GAT_33
1112GAT_34
1115GAT_35
0CLK
#3000
1CLK
#3500
11GAT_0
14GAT_1
08GAT_2
014GAT_4
121GAT_6
127GAT_8
134GAT_10
147GAT_14
153GAT_16
060GAT_18
073GAT_22
192GAT_28
099GAT_30
0105GAT_32
0115GAT_35
0CLK
#4000
1CLK
#4500
18GAT_2
114GAT_4
017GAT_5
034GAT_10
140GAT_12
047GAT_14
160GAT_18
1105GAT_32
0CLK
#5000
1CLK
#5500
014GAT_4
117GAT_5
024GAT_7
027GAT_8
030GAT_9
040GAT_12
060GAT_18
066GAT_20
173GAT_22
086GAT_26
092GAT_28
199GAT_30
1115GAT_35
0CLK
#6000
1CLK
#6500
08GAT_2
114GAT_4
021GAT_6
124GAT_7
130GAT_9
043GAT_13
166GAT_20
073GAT_22
179GAT_24
192GAT_28
099GAT_30
0112GAT_34
0115GAT_35
0CLK
#7000
1CLK
#7500
18GAT_2
121GAT_6
127GAT_8
134GAT_10
140GAT_12
143GAT_13
050GAT_15
056GAT_17
066GAT_20
079GAT_24
186GAT_26
199GAT_30
0105GAT_32
1115GAT_35
0CLK
#8000
1CLK
#8500
08GAT_2
021GAT_6
034GAT_10
150GAT_15
053GAT_16
156GAT_17
160GAT_18
069GAT_21
099GAT_30
1105GAT_32
1112GAT_34
0115GAT_35
0CLK
#9000
1CLK
#9500
18GAT_2
014GAT_4
121GAT_6
147GAT_14
153GAT_16
166GAT_20
169GAT_21
179GAT_24
082GAT_25
199GAT_30
1115GAT_35
0CLK
#10000
1CLK
#10500
114GAT_4
021GAT_6
027GAT_8
134GAT_10
047GAT_14
060GAT_18
182GAT_25
086GAT_26
089GAT_27
092GAT_28
095GAT_29
099GAT_30
0112GAT_34
0CLK
#11000
1CLK
#11500
127GAT_8
040GAT_12
160GAT_18
066GAT_20
189GAT_27
195GAT_29
0108GAT_33
0CLK
#12000
1CLK
#12500
01GAT_0
08GAT_2
014GAT_4
034GAT_10
140GAT_12
053GAT_16
166GAT_20
173GAT_22
079GAT_24
192GAT_28
199GAT_30
1108GAT_33
0CLK
#13000
1CLK
#13500
11GAT_0
011GAT_3
114GAT_4
121GAT_6
073GAT_22
0CLK
#14000
1CLK
#14500
111GAT_3
014GAT_4
021GAT_6
024GAT_7
060GAT_18
173GAT_22
179GAT_24
186GAT_26
092GAT_28
0105GAT_32
1112GAT_34
0CLK
#15000
1CLK
#15500
18GAT_2
114GAT_4
124GAT_7
134GAT_10
037GAT_11
040GAT_12
147GAT_14
153GAT_16
160GAT_18
066GAT_20
079GAT_24
086GAT_26
192GAT_28
099GAT_30
0115GAT_35
0CLK
#16000
1CLK
#16500
08GAT_2
014GAT_4
121GAT_6
034GAT_10
137GAT_11
140GAT_12
047GAT_14
050GAT_15
073GAT_22
092GAT_28
1115GAT_35
0CLK
#17000
1CLK
#17500
18GAT_2
114GAT_4
027GAT_8
040GAT_12
147GAT_14
150GAT_15
060GAT_18
063GAT_19
186GAT_26
0112GAT_34
0115GAT_35
0CLK
#18000
1CLK
#18500
021GAT_6
127GAT_8
134GAT_10
047GAT_14
160GAT_18
163GAT_19
166GAT_20
076GAT_23
179GAT_24
086GAT_26
192GAT_28
1115GAT_35
0CLK
#19000
1CLK
#19500
034GAT_10
066GAT_20
176GAT_23
186GAT_26
089GAT_27
092GAT_28
1105GAT_32
1112GAT_34
0115GAT_35
0CLK
#20000
1CLK
#20500
08GAT_2
027GAT_8
147GAT_14
060GAT_18
079GAT_24
189GAT_27
192GAT_28
0102GAT_31
0105GAT_32
1115GAT_35
0CLK
#21000
1CLK
#21500
18GAT_2
134GAT_10
047GAT_14
160GAT_18
166GAT_20
173GAT_22
092GAT_28
095GAT_29
1102GAT_31
1105GAT_32
0112GAT_34
0115GAT_35
0CLK
#22000
1CLK
#22500
08GAT_2
147GAT_14
056GAT_17
060GAT_18
066GAT_20
179GAT_24
195GAT_29
0105GAT_32
1112GAT_34
0CLK
#23000
1CLK
#23500
18GAT_2
121GAT_6
030GAT_9
034GAT_10
047GAT_14
053GAT_16
156GAT_17
166GAT_20
073GAT_22
086GAT_26
0CLK
#24000
1CLK
#24500
04GAT_1
127GAT_8
130GAT_9
134GAT_10
140GAT_12
153GAT_16
173GAT_22
186GAT_26
192GAT_28
1115GAT_35
0CLK
